00:00:00.167811  [DEBUG   ][CDbMgrServer::AddRecvMsg]u.GenLen()=121
00:00:00.167949  [DEBUG   ][CDbMgrServer::AddRecvMsg]u.GenLen()=295
00:00:00.167977  [DEBUG   ][CDbMgrServer::AddRecvMsg]u.GenLen()=290
00:00:00.167995  [DEBUG   ][CDbMgrServer::AddRecvMsg]u.GenLen()=325
00:00:00.168012  [DEBUG   ][CDbMgrServer::AddRecvMsg]u.GenLen()=324
00:00:00.168029  [DEBUG   ][CDbMgrServer::AddRecvMsg]u.GenLen()=345
00:00:00.168046  [DEBUG   ][CDbMgrServer::AddRecvMsg]u.GenLen()=559
00:00:00.168062  [DEBUG   ][CDbMgrServer::AddRecvMsg]u.GenLen()=585
00:00:00.207433  [WARNING ][CPluto::resize]msg=24673;old=256;new=4096
00:00:00.207510  [DEBUG   ][CDbOper::TableSelect]len=2095
00:00:00.207535  [WARNING ][CPluto::resize]msg=24673;old=256;new=4096
00:00:00.207572  [DEBUG   ][CDbOper::TableSelect]len=1133
00:00:00.207614  [DEBUG   ][CDbOper::TableSelect]len=118
00:00:00.207720  [DEBUG   ][CDbOper::TableSelect]len=120
00:00:00.207814  [DEBUG   ][CDbOper::TableSelect]len=125
00:00:00.207837  [WARNING ][CPluto::resize]msg=24673;old=256;new=4096
00:00:00.207871  [DEBUG   ][CDbOper::TableSelect]len=2100
00:00:00.207912  [DEBUG   ][CDbOper::TableSelect]len=128
00:00:00.218168  [DEBUG   ][CDbMgrServer::HandleSendPluto]u.GenLen()=2095
00:00:00.218207  [DEBUG   ][CDbMgrServer::HandleSendPluto]u.GenLen()=1133
00:00:00.218222  [DEBUG   ][CDbMgrServer::HandleSendPluto]u.GenLen()=118
00:00:00.218236  [DEBUG   ][CDbMgrServer::HandleSendPluto]u.GenLen()=120
00:00:00.218249  [DEBUG   ][CDbMgrServer::HandleSendPluto]u.GenLen()=125
00:00:00.218263  [DEBUG   ][CDbMgrServer::HandleSendPluto]u.GenLen()=2100
00:00:00.218276  [DEBUG   ][CDbMgrServer::HandleSendPluto]u.GenLen()=128
00:00:04.467169  [DEBUG   ][CDbMgrServer::AddRecvMsg]u.GenLen()=57
00:00:04.467218  [DEBUG   ][CDbMgrServer::AddRecvMsg]u.GenLen()=50
00:00:04.519510  [INFO    ][redis_UpdateEntity]type=ArenaMgr;dbid=4294967296;ret=OK
00:00:04.519510  [INFO    ][redis_UpdateEntity]type=WorldBossMgr;dbid=4294967296;ret=OK
01:00:00.167532  [DEBUG   ][CDbMgrServer::AddRecvMsg]u.GenLen()=295
01:00:00.167587  [DEBUG   ][CDbMgrServer::AddRecvMsg]u.GenLen()=290
01:00:00.167606  [DEBUG   ][CDbMgrServer::AddRecvMsg]u.GenLen()=325
01:00:00.167625  [DEBUG   ][CDbMgrServer::AddRecvMsg]u.GenLen()=324
01:00:00.167643  [DEBUG   ][CDbMgrServer::AddRecvMsg]u.GenLen()=345
01:00:00.167660  [DEBUG   ][CDbMgrServer::AddRecvMsg]u.GenLen()=559
01:00:00.167677  [DEBUG   ][CDbMgrServer::AddRecvMsg]u.GenLen()=585
01:00:00.209733  [WARNING ][CPluto::resize]msg=24673;old=256;new=4096
01:00:00.209827  [DEBUG   ][CDbOper::TableSelect]len=2100
01:00:00.209991  [WARNING ][CPluto::resize]msg=24673;old=256;new=4096
01:00:00.210029  [DEBUG   ][CDbOper::TableSelect]len=1133
01:00:00.210036  [DEBUG   ][CDbOper::TableSelect]len=118
01:00:00.210099  [WARNING ][CPluto::resize]msg=24673;old=256;new=4096
01:00:00.210107  [DEBUG   ][CDbOper::TableSelect]len=128
01:00:00.210344  [DEBUG   ][CDbOper::TableSelect]len=120
01:00:00.210311  [DEBUG   ][CDbOper::TableSelect]len=2095
01:00:00.210380  [DEBUG   ][CDbOper::TableSelect]len=125
01:00:00.217797  [DEBUG   ][CDbMgrServer::HandleSendPluto]u.GenLen()=2100
01:00:00.217866  [DEBUG   ][CDbMgrServer::HandleSendPluto]u.GenLen()=1133
01:00:00.217895  [DEBUG   ][CDbMgrServer::HandleSendPluto]u.GenLen()=118
01:00:00.217918  [DEBUG   ][CDbMgrServer::HandleSendPluto]u.GenLen()=128
01:00:00.217940  [DEBUG   ][CDbMgrServer::HandleSendPluto]u.GenLen()=2095
01:00:00.217965  [DEBUG   ][CDbMgrServer::HandleSendPluto]u.GenLen()=120
01:00:00.217990  [DEBUG   ][CDbMgrServer::HandleSendPluto]u.GenLen()=125
02:00:00.167692  [DEBUG   ][CDbMgrServer::AddRecvMsg]u.GenLen()=295
02:00:00.167772  [DEBUG   ][CDbMgrServer::AddRecvMsg]u.GenLen()=290
02:00:00.167797  [DEBUG   ][CDbMgrServer::AddRecvMsg]u.GenLen()=325
02:00:00.167816  [DEBUG   ][CDbMgrServer::AddRecvMsg]u.GenLen()=324
02:00:00.167833  [DEBUG   ][CDbMgrServer::AddRecvMsg]u.GenLen()=345
02:00:00.167850  [DEBUG   ][CDbMgrServer::AddRecvMsg]u.GenLen()=559
02:00:00.167868  [DEBUG   ][CDbMgrServer::AddRecvMsg]u.GenLen()=585
02:00:00.199139  [WARNING ][CPluto::resize]msg=24673;old=256;new=4096
02:00:00.199235  [DEBUG   ][CDbOper::TableSelect]len=2095
02:00:00.199311  [WARNING ][CPluto::resize]msg=24673;old=256;new=4096
02:00:00.199360  [DEBUG   ][CDbOper::TableSelect]len=128
02:00:00.199364  [DEBUG   ][CDbOper::TableSelect]len=1133
02:00:00.199470  [WARNING ][CPluto::resize]msg=24673;old=256;new=4096
02:00:00.199511  [DEBUG   ][CDbOper::TableSelect]len=2100
02:00:00.199419  [DEBUG   ][CDbOper::TableSelect]len=118
02:00:00.199575  [DEBUG   ][CDbOper::TableSelect]len=125
02:00:00.199619  [DEBUG   ][CDbOper::TableSelect]len=120
02:00:00.217993  [DEBUG   ][CDbMgrServer::HandleSendPluto]u.GenLen()=2095
02:00:00.218086  [DEBUG   ][CDbMgrServer::HandleSendPluto]u.GenLen()=128
02:00:00.218111  [DEBUG   ][CDbMgrServer::HandleSendPluto]u.GenLen()=1133
02:00:00.218134  [DEBUG   ][CDbMgrServer::HandleSendPluto]u.GenLen()=118
02:00:00.218154  [DEBUG   ][CDbMgrServer::HandleSendPluto]u.GenLen()=2100
02:00:00.218174  [DEBUG   ][CDbMgrServer::HandleSendPluto]u.GenLen()=125
02:00:00.218197  [DEBUG   ][CDbMgrServer::HandleSendPluto]u.GenLen()=120
03:00:00.167528  [DEBUG   ][CDbMgrServer::AddRecvMsg]u.GenLen()=295
03:00:00.167577  [DEBUG   ][CDbMgrServer::AddRecvMsg]u.GenLen()=290
03:00:00.167596  [DEBUG   ][CDbMgrServer::AddRecvMsg]u.GenLen()=325
03:00:00.167615  [DEBUG   ][CDbMgrServer::AddRecvMsg]u.GenLen()=324
03:00:00.167633  [DEBUG   ][CDbMgrServer::AddRecvMsg]u.GenLen()=345
03:00:00.167650  [DEBUG   ][CDbMgrServer::AddRecvMsg]u.GenLen()=559
03:00:00.167667  [DEBUG   ][CDbMgrServer::AddRecvMsg]u.GenLen()=585
03:00:00.214972  [DEBUG   ][CDbOper::TableSelect]len=118
03:00:00.215070  [WARNING ][CPluto::resize]msg=24673;old=256;new=4096
03:00:00.215101  [DEBUG   ][CDbOper::TableSelect]len=2095
03:00:00.215025  [WARNING ][CPluto::resize]msg=24673;old=256;new=4096
03:00:00.215153  [DEBUG   ][CDbOper::TableSelect]len=1133
03:00:00.215236  [WARNING ][CPluto::resize]msg=24673;old=256;new=4096
03:00:00.215266  [DEBUG   ][CDbOper::TableSelect]len=125
03:00:00.215293  [DEBUG   ][CDbOper::TableSelect]len=120
03:00:00.215317  [DEBUG   ][CDbOper::TableSelect]len=128
03:00:00.215268  [DEBUG   ][CDbOper::TableSelect]len=2100
03:00:00.217766  [DEBUG   ][CDbMgrServer::HandleSendPluto]u.GenLen()=118
03:00:00.217790  [DEBUG   ][CDbMgrServer::HandleSendPluto]u.GenLen()=2095
03:00:00.217805  [DEBUG   ][CDbMgrServer::HandleSendPluto]u.GenLen()=1133
03:00:00.217819  [DEBUG   ][CDbMgrServer::HandleSendPluto]u.GenLen()=125
03:00:00.217833  [DEBUG   ][CDbMgrServer::HandleSendPluto]u.GenLen()=2100
03:00:00.217847  [DEBUG   ][CDbMgrServer::HandleSendPluto]u.GenLen()=120
03:00:00.217861  [DEBUG   ][CDbMgrServer::HandleSendPluto]u.GenLen()=128
04:00:00.167553  [DEBUG   ][CDbMgrServer::AddRecvMsg]u.GenLen()=295
04:00:00.167609  [DEBUG   ][CDbMgrServer::AddRecvMsg]u.GenLen()=290
04:00:00.167628  [DEBUG   ][CDbMgrServer::AddRecvMsg]u.GenLen()=325
04:00:00.167662  [DEBUG   ][CDbMgrServer::AddRecvMsg]u.GenLen()=324
04:00:00.167685  [DEBUG   ][CDbMgrServer::AddRecvMsg]u.GenLen()=345
04:00:00.167705  [DEBUG   ][CDbMgrServer::AddRecvMsg]u.GenLen()=559
04:00:00.167737  [DEBUG   ][CDbMgrServer::AddRecvMsg]u.GenLen()=585
04:00:00.167944  [WARNING ][CPluto::resize]msg=24673;old=256;new=4096
04:00:00.167982  [DEBUG   ][CDbOper::TableSelect]len=2100
04:00:00.168099  [DEBUG   ][CDbOper::TableSelect]len=128
04:00:00.168133  [DEBUG   ][CDbOper::TableSelect]len=118
04:00:00.168214  [WARNING ][CPluto::resize]msg=24673;old=256;new=4096
04:00:00.168222  [DEBUG   ][CDbOper::TableSelect]len=120
04:00:00.168102  [WARNING ][CPluto::resize]msg=24673;old=256;new=4096
04:00:00.168291  [DEBUG   ][CDbOper::TableSelect]len=125
04:00:00.168349  [DEBUG   ][CDbOper::TableSelect]len=2095
04:00:00.168428  [DEBUG   ][CDbOper::TableSelect]len=1133
04:00:00.217853  [DEBUG   ][CDbMgrServer::HandleSendPluto]u.GenLen()=2100
04:00:00.217957  [DEBUG   ][CDbMgrServer::HandleSendPluto]u.GenLen()=128
04:00:00.217977  [DEBUG   ][CDbMgrServer::HandleSendPluto]u.GenLen()=118
04:00:00.217991  [DEBUG   ][CDbMgrServer::HandleSendPluto]u.GenLen()=120
04:00:00.218006  [DEBUG   ][CDbMgrServer::HandleSendPluto]u.GenLen()=125
04:00:00.218036  [DEBUG   ][CDbMgrServer::HandleSendPluto]u.GenLen()=2095
04:00:00.218051  [DEBUG   ][CDbMgrServer::HandleSendPluto]u.GenLen()=1133
05:00:00.168038  [DEBUG   ][CDbMgrServer::AddRecvMsg]u.GenLen()=295
05:00:00.168130  [DEBUG   ][CDbMgrServer::AddRecvMsg]u.GenLen()=290
05:00:00.168150  [DEBUG   ][CDbMgrServer::AddRecvMsg]u.GenLen()=325
05:00:00.168170  [DEBUG   ][CDbMgrServer::AddRecvMsg]u.GenLen()=324
05:00:00.168188  [DEBUG   ][CDbMgrServer::AddRecvMsg]u.GenLen()=345
05:00:00.168205  [DEBUG   ][CDbMgrServer::AddRecvMsg]u.GenLen()=559
05:00:00.168223  [DEBUG   ][CDbMgrServer::AddRecvMsg]u.GenLen()=585
05:00:00.214685  [WARNING ][CPluto::resize]msg=24673;old=256;new=4096
05:00:00.214765  [DEBUG   ][CDbOper::TableSelect]len=2095
05:00:00.214825  [DEBUG   ][CDbOper::TableSelect]len=118
05:00:00.214912  [WARNING ][CPluto::resize]msg=24673;old=256;new=4096
05:00:00.214943  [DEBUG   ][CDbOper::TableSelect]len=2100
05:00:00.215000  [WARNING ][CPluto::resize]msg=24673;old=256;new=4096
05:00:00.215031  [DEBUG   ][CDbOper::TableSelect]len=1133
05:00:00.215063  [DEBUG   ][CDbOper::TableSelect]len=128
05:00:00.215080  [DEBUG   ][CDbOper::TableSelect]len=120
05:00:00.215111  [DEBUG   ][CDbOper::TableSelect]len=125
05:00:00.218333  [DEBUG   ][CDbMgrServer::HandleSendPluto]u.GenLen()=2095
05:00:00.218360  [DEBUG   ][CDbMgrServer::HandleSendPluto]u.GenLen()=118
05:00:00.218375  [DEBUG   ][CDbMgrServer::HandleSendPluto]u.GenLen()=2100
05:00:00.218389  [DEBUG   ][CDbMgrServer::HandleSendPluto]u.GenLen()=1133
05:00:00.218402  [DEBUG   ][CDbMgrServer::HandleSendPluto]u.GenLen()=128
05:00:00.218416  [DEBUG   ][CDbMgrServer::HandleSendPluto]u.GenLen()=120
05:00:00.218430  [DEBUG   ][CDbMgrServer::HandleSendPluto]u.GenLen()=125
06:00:00.168534  [DEBUG   ][CDbMgrServer::AddRecvMsg]u.GenLen()=295
06:00:00.168599  [DEBUG   ][CDbMgrServer::AddRecvMsg]u.GenLen()=290
06:00:00.168632  [DEBUG   ][CDbMgrServer::AddRecvMsg]u.GenLen()=325
06:00:00.168693  [DEBUG   ][CDbMgrServer::AddRecvMsg]u.GenLen()=324
06:00:00.168728  [DEBUG   ][CDbMgrServer::AddRecvMsg]u.GenLen()=345
06:00:00.168759  [DEBUG   ][CDbMgrServer::AddRecvMsg]u.GenLen()=559
06:00:00.168791  [DEBUG   ][CDbMgrServer::AddRecvMsg]u.GenLen()=585
06:00:00.184306  [WARNING ][CPluto::resize]msg=24673;old=256;new=4096
06:00:00.184386  [DEBUG   ][CDbOper::TableSelect]len=1133
06:00:00.184414  [WARNING ][CPluto::resize]msg=24673;old=256;new=4096
06:00:00.184456  [DEBUG   ][CDbOper::TableSelect]len=2095
06:00:00.184508  [WARNING ][CPluto::resize]msg=24673;old=256;new=4096
06:00:00.184537  [DEBUG   ][CDbOper::TableSelect]len=2100
06:00:00.184349  [DEBUG   ][CDbOper::TableSelect]len=118
06:00:00.184644  [DEBUG   ][CDbOper::TableSelect]len=128
06:00:00.184654  [DEBUG   ][CDbOper::TableSelect]len=120
06:00:00.184689  [DEBUG   ][CDbOper::TableSelect]len=125
06:00:00.218935  [DEBUG   ][CDbMgrServer::HandleSendPluto]u.GenLen()=118
06:00:00.219027  [DEBUG   ][CDbMgrServer::HandleSendPluto]u.GenLen()=1133
06:00:00.219054  [DEBUG   ][CDbMgrServer::HandleSendPluto]u.GenLen()=2095
06:00:00.219078  [DEBUG   ][CDbMgrServer::HandleSendPluto]u.GenLen()=2100
06:00:00.219101  [DEBUG   ][CDbMgrServer::HandleSendPluto]u.GenLen()=128
06:00:00.219125  [DEBUG   ][CDbMgrServer::HandleSendPluto]u.GenLen()=120
06:00:00.219148  [DEBUG   ][CDbMgrServer::HandleSendPluto]u.GenLen()=125
07:00:00.167637  [DEBUG   ][CDbMgrServer::AddRecvMsg]u.GenLen()=295
07:00:00.167687  [DEBUG   ][CDbMgrServer::AddRecvMsg]u.GenLen()=290
07:00:00.167708  [DEBUG   ][CDbMgrServer::AddRecvMsg]u.GenLen()=325
07:00:00.167729  [DEBUG   ][CDbMgrServer::AddRecvMsg]u.GenLen()=324
07:00:00.167756  [DEBUG   ][CDbMgrServer::AddRecvMsg]u.GenLen()=345
07:00:00.167775  [DEBUG   ][CDbMgrServer::AddRecvMsg]u.GenLen()=559
07:00:00.167793  [DEBUG   ][CDbMgrServer::AddRecvMsg]u.GenLen()=585
07:00:00.191355  [WARNING ][CPluto::resize]msg=24673;old=256;new=4096
07:00:00.191423  [DEBUG   ][CDbOper::TableSelect]len=2100
07:00:00.191547  [WARNING ][CPluto::resize]msg=24673;old=256;new=4096
07:00:00.191561  [DEBUG   ][CDbOper::TableSelect]len=128
07:00:00.191624  [DEBUG   ][CDbOper::TableSelect]len=118
07:00:00.191747  [DEBUG   ][CDbOper::TableSelect]len=120
07:00:00.191790  [DEBUG   ][CDbOper::TableSelect]len=125
07:00:00.191753  [WARNING ][CPluto::resize]msg=24673;old=256;new=4096
07:00:00.191841  [DEBUG   ][CDbOper::TableSelect]len=2095
07:00:00.191587  [DEBUG   ][CDbOper::TableSelect]len=1133
07:00:00.217909  [DEBUG   ][CDbMgrServer::HandleSendPluto]u.GenLen()=2100
07:00:00.217994  [DEBUG   ][CDbMgrServer::HandleSendPluto]u.GenLen()=128
07:00:00.218013  [DEBUG   ][CDbMgrServer::HandleSendPluto]u.GenLen()=1133
07:00:00.218027  [DEBUG   ][CDbMgrServer::HandleSendPluto]u.GenLen()=118
07:00:00.218040  [DEBUG   ][CDbMgrServer::HandleSendPluto]u.GenLen()=120
07:00:00.218053  [DEBUG   ][CDbMgrServer::HandleSendPluto]u.GenLen()=125
07:00:00.218067  [DEBUG   ][CDbMgrServer::HandleSendPluto]u.GenLen()=2095
08:00:00.167537  [DEBUG   ][CDbMgrServer::AddRecvMsg]u.GenLen()=295
08:00:00.167590  [DEBUG   ][CDbMgrServer::AddRecvMsg]u.GenLen()=290
08:00:00.167609  [DEBUG   ][CDbMgrServer::AddRecvMsg]u.GenLen()=325
08:00:00.167628  [DEBUG   ][CDbMgrServer::AddRecvMsg]u.GenLen()=324
08:00:00.167659  [DEBUG   ][CDbMgrServer::AddRecvMsg]u.GenLen()=345
08:00:00.167678  [DEBUG   ][CDbMgrServer::AddRecvMsg]u.GenLen()=559
08:00:00.167697  [DEBUG   ][CDbMgrServer::AddRecvMsg]u.GenLen()=585
08:00:00.168241  [WARNING ][CPluto::resize]msg=24673;old=256;new=4096
08:00:00.168275  [DEBUG   ][CDbOper::TableSelect]len=2100
08:00:00.168386  [DEBUG   ][CDbOper::TableSelect]len=128
08:00:00.168439  [DEBUG   ][CDbOper::TableSelect]len=118
08:00:00.168393  [WARNING ][CPluto::resize]msg=24673;old=256;new=4096
08:00:00.168487  [DEBUG   ][CDbOper::TableSelect]len=1133
08:00:00.168576  [WARNING ][CPluto::resize]msg=24673;old=256;new=4096
08:00:00.168605  [DEBUG   ][CDbOper::TableSelect]len=2095
08:00:00.168614  [DEBUG   ][CDbOper::TableSelect]len=120
08:00:00.168670  [DEBUG   ][CDbOper::TableSelect]len=125
08:00:00.217820  [DEBUG   ][CDbMgrServer::HandleSendPluto]u.GenLen()=2100
08:00:00.217904  [DEBUG   ][CDbMgrServer::HandleSendPluto]u.GenLen()=128
08:00:00.217920  [DEBUG   ][CDbMgrServer::HandleSendPluto]u.GenLen()=118
08:00:00.217940  [DEBUG   ][CDbMgrServer::HandleSendPluto]u.GenLen()=1133
08:00:00.217965  [DEBUG   ][CDbMgrServer::HandleSendPluto]u.GenLen()=2095
08:00:00.217983  [DEBUG   ][CDbMgrServer::HandleSendPluto]u.GenLen()=120
08:00:00.217998  [DEBUG   ][CDbMgrServer::HandleSendPluto]u.GenLen()=125
09:00:00.167678  [DEBUG   ][CDbMgrServer::AddRecvMsg]u.GenLen()=295
09:00:00.167742  [DEBUG   ][CDbMgrServer::AddRecvMsg]u.GenLen()=290
09:00:00.167776  [DEBUG   ][CDbMgrServer::AddRecvMsg]u.GenLen()=325
09:00:00.167810  [DEBUG   ][CDbMgrServer::AddRecvMsg]u.GenLen()=324
09:00:00.167839  [DEBUG   ][CDbMgrServer::AddRecvMsg]u.GenLen()=345
09:00:00.167858  [DEBUG   ][CDbMgrServer::AddRecvMsg]u.GenLen()=559
09:00:00.167876  [DEBUG   ][CDbMgrServer::AddRecvMsg]u.GenLen()=585
09:00:00.217609  [WARNING ][CPluto::resize]msg=24673;old=256;new=4096
09:00:00.217690  [DEBUG   ][CDbOper::TableSelect]len=2095
09:00:00.217784  [WARNING ][CPluto::resize]msg=24673;old=256;new=4096
09:00:00.217814  [DEBUG   ][CDbOper::TableSelect]len=128
09:00:00.217857  [DEBUG   ][CDbOper::TableSelect]len=118
09:00:00.217976  [DEBUG   ][CDbOper::TableSelect]len=120
09:00:00.217819  [DEBUG   ][CDbOper::TableSelect]len=1133
09:00:00.218057  [DEBUG   ][CDbOper::TableSelect]len=125
09:00:00.218101  [DEBUG   ][CDbMgrServer::HandleSendPluto]u.GenLen()=2095
09:00:00.218121  [DEBUG   ][CDbMgrServer::HandleSendPluto]u.GenLen()=128
09:00:00.218130  [WARNING ][CPluto::resize]msg=24673;old=256;new=4096
09:00:00.218136  [DEBUG   ][CDbMgrServer::HandleSendPluto]u.GenLen()=1133
09:00:00.218209  [DEBUG   ][CDbMgrServer::HandleSendPluto]u.GenLen()=118
09:00:00.218228  [DEBUG   ][CDbMgrServer::HandleSendPluto]u.GenLen()=120
09:00:00.218248  [DEBUG   ][CDbMgrServer::HandleSendPluto]u.GenLen()=125
09:00:00.218179  [DEBUG   ][CDbOper::TableSelect]len=2100
09:00:00.218265  [DEBUG   ][CDbMgrServer::HandleSendPluto]u.GenLen()=2100
10:00:00.167460  [DEBUG   ][CDbMgrServer::AddRecvMsg]u.GenLen()=295
10:00:00.167524  [DEBUG   ][CDbMgrServer::AddRecvMsg]u.GenLen()=290
10:00:00.167559  [DEBUG   ][CDbMgrServer::AddRecvMsg]u.GenLen()=325
10:00:00.167591  [DEBUG   ][CDbMgrServer::AddRecvMsg]u.GenLen()=324
10:00:00.167620  [DEBUG   ][CDbMgrServer::AddRecvMsg]u.GenLen()=345
10:00:00.167650  [DEBUG   ][CDbMgrServer::AddRecvMsg]u.GenLen()=559
10:00:00.167681  [DEBUG   ][CDbMgrServer::AddRecvMsg]u.GenLen()=585
10:00:00.209512  [WARNING ][CPluto::resize]msg=24673;old=256;new=4096
10:00:00.209602  [DEBUG   ][CDbOper::TableSelect]len=2095
10:00:00.209661  [DEBUG   ][CDbOper::TableSelect]len=118
10:00:00.209610  [WARNING ][CPluto::resize]msg=24673;old=256;new=4096
10:00:00.209780  [DEBUG   ][CDbOper::TableSelect]len=1133
10:00:00.209828  [DEBUG   ][CDbOper::TableSelect]len=128
10:00:00.209921  [DEBUG   ][CDbOper::TableSelect]len=120
10:00:00.209921  [WARNING ][CPluto::resize]msg=24673;old=256;new=4096
10:00:00.209972  [DEBUG   ][CDbOper::TableSelect]len=125
10:00:00.209982  [DEBUG   ][CDbOper::TableSelect]len=2100
10:00:00.217806  [DEBUG   ][CDbMgrServer::HandleSendPluto]u.GenLen()=2095
10:00:00.217847  [DEBUG   ][CDbMgrServer::HandleSendPluto]u.GenLen()=118
10:00:00.217871  [DEBUG   ][CDbMgrServer::HandleSendPluto]u.GenLen()=1133
10:00:00.217896  [DEBUG   ][CDbMgrServer::HandleSendPluto]u.GenLen()=128
10:00:00.217922  [DEBUG   ][CDbMgrServer::HandleSendPluto]u.GenLen()=120
10:00:00.217948  [DEBUG   ][CDbMgrServer::HandleSendPluto]u.GenLen()=125
10:00:00.217973  [DEBUG   ][CDbMgrServer::HandleSendPluto]u.GenLen()=2100
11:00:00.167667  [DEBUG   ][CDbMgrServer::AddRecvMsg]u.GenLen()=295
11:00:00.167732  [DEBUG   ][CDbMgrServer::AddRecvMsg]u.GenLen()=290
11:00:00.167768  [DEBUG   ][CDbMgrServer::AddRecvMsg]u.GenLen()=325
11:00:00.167798  [DEBUG   ][CDbMgrServer::AddRecvMsg]u.GenLen()=324
11:00:00.167827  [DEBUG   ][CDbMgrServer::AddRecvMsg]u.GenLen()=345
11:00:00.167853  [DEBUG   ][CDbMgrServer::AddRecvMsg]u.GenLen()=559
11:00:00.167882  [DEBUG   ][CDbMgrServer::AddRecvMsg]u.GenLen()=585
11:00:00.184354  [DEBUG   ][CDbOper::TableSelect]len=118
11:00:00.184504  [DEBUG   ][CDbOper::TableSelect]len=128
11:00:00.184540  [WARNING ][CPluto::resize]msg=24673;old=256;new=4096
11:00:00.184584  [DEBUG   ][CDbOper::TableSelect]len=2100
11:00:00.184630  [DEBUG   ][CDbOper::TableSelect]len=120
11:00:00.184672  [WARNING ][CPluto::resize]msg=24673;old=256;new=4096
11:00:00.184698  [WARNING ][CPluto::resize]msg=24673;old=256;new=4096
11:00:00.184733  [DEBUG   ][CDbOper::TableSelect]len=2095
11:00:00.184699  [DEBUG   ][CDbOper::TableSelect]len=1133
11:00:00.184771  [DEBUG   ][CDbOper::TableSelect]len=125
11:00:00.218001  [DEBUG   ][CDbMgrServer::HandleSendPluto]u.GenLen()=118
11:00:00.218068  [DEBUG   ][CDbMgrServer::HandleSendPluto]u.GenLen()=128
11:00:00.218084  [DEBUG   ][CDbMgrServer::HandleSendPluto]u.GenLen()=2100
11:00:00.218099  [DEBUG   ][CDbMgrServer::HandleSendPluto]u.GenLen()=120
11:00:00.218113  [DEBUG   ][CDbMgrServer::HandleSendPluto]u.GenLen()=1133
11:00:00.218127  [DEBUG   ][CDbMgrServer::HandleSendPluto]u.GenLen()=2095
11:00:00.218141  [DEBUG   ][CDbMgrServer::HandleSendPluto]u.GenLen()=125
12:00:00.167460  [DEBUG   ][CDbMgrServer::AddRecvMsg]u.GenLen()=295
12:00:00.167512  [DEBUG   ][CDbMgrServer::AddRecvMsg]u.GenLen()=290
12:00:00.167536  [DEBUG   ][CDbMgrServer::AddRecvMsg]u.GenLen()=325
12:00:00.167555  [DEBUG   ][CDbMgrServer::AddRecvMsg]u.GenLen()=324
12:00:00.167572  [DEBUG   ][CDbMgrServer::AddRecvMsg]u.GenLen()=345
12:00:00.167589  [DEBUG   ][CDbMgrServer::AddRecvMsg]u.GenLen()=559
12:00:00.167607  [DEBUG   ][CDbMgrServer::AddRecvMsg]u.GenLen()=585
12:00:00.200910  [DEBUG   ][CDbOper::TableSelect]len=118
12:00:00.201019  [WARNING ][CPluto::resize]msg=24673;old=256;new=4096
12:00:00.201057  [DEBUG   ][CDbOper::TableSelect]len=2095
12:00:00.201094  [DEBUG   ][CDbOper::TableSelect]len=128
12:00:00.200966  [WARNING ][CPluto::resize]msg=24673;old=256;new=4096
12:00:00.201195  [DEBUG   ][CDbOper::TableSelect]len=1133
12:00:00.201218  [DEBUG   ][CDbOper::TableSelect]len=125
12:00:00.201275  [DEBUG   ][CDbOper::TableSelect]len=120
12:00:00.201248  [WARNING ][CPluto::resize]msg=24673;old=256;new=4096
12:00:00.201322  [DEBUG   ][CDbOper::TableSelect]len=2100
12:00:00.217724  [DEBUG   ][CDbMgrServer::HandleSendPluto]u.GenLen()=118
12:00:00.217786  [DEBUG   ][CDbMgrServer::HandleSendPluto]u.GenLen()=2095
12:00:00.217801  [DEBUG   ][CDbMgrServer::HandleSendPluto]u.GenLen()=128
12:00:00.217815  [DEBUG   ][CDbMgrServer::HandleSendPluto]u.GenLen()=1133
12:00:00.217829  [DEBUG   ][CDbMgrServer::HandleSendPluto]u.GenLen()=125
12:00:00.217843  [DEBUG   ][CDbMgrServer::HandleSendPluto]u.GenLen()=120
12:00:00.217856  [DEBUG   ][CDbMgrServer::HandleSendPluto]u.GenLen()=2100
13:00:00.167906  [DEBUG   ][CDbMgrServer::AddRecvMsg]u.GenLen()=295
13:00:00.167959  [DEBUG   ][CDbMgrServer::AddRecvMsg]u.GenLen()=290
13:00:00.167978  [DEBUG   ][CDbMgrServer::AddRecvMsg]u.GenLen()=325
13:00:00.167996  [DEBUG   ][CDbMgrServer::AddRecvMsg]u.GenLen()=324
13:00:00.168013  [DEBUG   ][CDbMgrServer::AddRecvMsg]u.GenLen()=345
13:00:00.168051  [DEBUG   ][CDbMgrServer::AddRecvMsg]u.GenLen()=559
13:00:00.168069  [DEBUG   ][CDbMgrServer::AddRecvMsg]u.GenLen()=585
13:00:00.192862  [WARNING ][CPluto::resize]msg=24673;old=256;new=4096
13:00:00.192920  [DEBUG   ][CDbOper::TableSelect]len=2100
13:00:00.192987  [WARNING ][CPluto::resize]msg=24673;old=256;new=4096
13:00:00.193022  [DEBUG   ][CDbOper::TableSelect]len=1133
13:00:00.193033  [DEBUG   ][CDbOper::TableSelect]len=128
13:00:00.193096  [DEBUG   ][CDbOper::TableSelect]len=118
13:00:00.193151  [DEBUG   ][CDbOper::TableSelect]len=125
13:00:00.193211  [WARNING ][CPluto::resize]msg=24673;old=256;new=4096
13:00:00.193240  [DEBUG   ][CDbOper::TableSelect]len=2095
13:00:00.193277  [DEBUG   ][CDbOper::TableSelect]len=120
13:00:00.218187  [DEBUG   ][CDbMgrServer::HandleSendPluto]u.GenLen()=2100
13:00:00.218253  [DEBUG   ][CDbMgrServer::HandleSendPluto]u.GenLen()=1133
13:00:00.218279  [DEBUG   ][CDbMgrServer::HandleSendPluto]u.GenLen()=128
13:00:00.218301  [DEBUG   ][CDbMgrServer::HandleSendPluto]u.GenLen()=118
13:00:00.218323  [DEBUG   ][CDbMgrServer::HandleSendPluto]u.GenLen()=125
13:00:00.218348  [DEBUG   ][CDbMgrServer::HandleSendPluto]u.GenLen()=2095
13:00:00.218364  [DEBUG   ][CDbMgrServer::HandleSendPluto]u.GenLen()=120
13:00:14.467157  [DEBUG   ][CDbMgrServer::AddRecvMsg]u.GenLen()=57
13:00:14.473227  [INFO    ][redis_UpdateEntity]type=WorldBossMgr;dbid=4294967296;ret=OK
14:00:00.167452  [DEBUG   ][CDbMgrServer::AddRecvMsg]u.GenLen()=295
14:00:00.167507  [DEBUG   ][CDbMgrServer::AddRecvMsg]u.GenLen()=290
14:00:00.167528  [DEBUG   ][CDbMgrServer::AddRecvMsg]u.GenLen()=325
14:00:00.167545  [DEBUG   ][CDbMgrServer::AddRecvMsg]u.GenLen()=324
14:00:00.167562  [DEBUG   ][CDbMgrServer::AddRecvMsg]u.GenLen()=345
14:00:00.167579  [DEBUG   ][CDbMgrServer::AddRecvMsg]u.GenLen()=559
14:00:00.167597  [DEBUG   ][CDbMgrServer::AddRecvMsg]u.GenLen()=585
14:00:00.187895  [WARNING ][CPluto::resize]msg=24673;old=256;new=4096
14:00:00.187975  [DEBUG   ][CDbOper::TableSelect]len=2095
14:00:00.188070  [DEBUG   ][CDbOper::TableSelect]len=118
14:00:00.188089  [DEBUG   ][CDbOper::TableSelect]len=128
14:00:00.188211  [WARNING ][CPluto::resize]msg=24673;old=256;new=4096
14:00:00.188225  [DEBUG   ][CDbOper::TableSelect]len=125
14:00:00.188275  [DEBUG   ][CDbOper::TableSelect]len=120
14:00:00.188247  [DEBUG   ][CDbOper::TableSelect]len=1133
14:00:00.188320  [WARNING ][CPluto::resize]msg=24673;old=256;new=4096
14:00:00.188347  [DEBUG   ][CDbOper::TableSelect]len=2100
14:00:00.217725  [DEBUG   ][CDbMgrServer::HandleSendPluto]u.GenLen()=2095
14:00:00.217823  [DEBUG   ][CDbMgrServer::HandleSendPluto]u.GenLen()=118
14:00:00.217848  [DEBUG   ][CDbMgrServer::HandleSendPluto]u.GenLen()=128
14:00:00.217864  [DEBUG   ][CDbMgrServer::HandleSendPluto]u.GenLen()=125
14:00:00.217879  [DEBUG   ][CDbMgrServer::HandleSendPluto]u.GenLen()=1133
14:00:00.217903  [DEBUG   ][CDbMgrServer::HandleSendPluto]u.GenLen()=120
14:00:00.217931  [DEBUG   ][CDbMgrServer::HandleSendPluto]u.GenLen()=2100
15:00:00.167648  [DEBUG   ][CDbMgrServer::AddRecvMsg]u.GenLen()=295
15:00:00.167769  [DEBUG   ][CDbMgrServer::AddRecvMsg]u.GenLen()=290
15:00:00.167791  [DEBUG   ][CDbMgrServer::AddRecvMsg]u.GenLen()=325
15:00:00.167810  [DEBUG   ][CDbMgrServer::AddRecvMsg]u.GenLen()=324
15:00:00.167827  [DEBUG   ][CDbMgrServer::AddRecvMsg]u.GenLen()=345
15:00:00.167844  [DEBUG   ][CDbMgrServer::AddRecvMsg]u.GenLen()=559
15:00:00.167862  [DEBUG   ][CDbMgrServer::AddRecvMsg]u.GenLen()=585
15:00:00.176675  [WARNING ][CPluto::resize]msg=24673;old=256;new=4096
15:00:00.176744  [DEBUG   ][CDbOper::TableSelect]len=2100
15:00:00.176874  [DEBUG   ][CDbOper::TableSelect]len=118
15:00:00.176973  [WARNING ][CPluto::resize]msg=24673;old=256;new=4096
15:00:00.177036  [DEBUG   ][CDbOper::TableSelect]len=1133
15:00:00.177068  [WARNING ][CPluto::resize]msg=24673;old=256;new=4096
15:00:00.177097  [DEBUG   ][CDbOper::TableSelect]len=2095
15:00:00.177135  [DEBUG   ][CDbOper::TableSelect]len=120
15:00:00.177175  [DEBUG   ][CDbOper::TableSelect]len=125
15:00:00.176980  [DEBUG   ][CDbOper::TableSelect]len=128
15:00:00.217977  [DEBUG   ][CDbMgrServer::HandleSendPluto]u.GenLen()=2100
15:00:00.218049  [DEBUG   ][CDbMgrServer::HandleSendPluto]u.GenLen()=118
15:00:00.218064  [DEBUG   ][CDbMgrServer::HandleSendPluto]u.GenLen()=128
15:00:00.218078  [DEBUG   ][CDbMgrServer::HandleSendPluto]u.GenLen()=1133
15:00:00.218092  [DEBUG   ][CDbMgrServer::HandleSendPluto]u.GenLen()=2095
15:00:00.218106  [DEBUG   ][CDbMgrServer::HandleSendPluto]u.GenLen()=120
15:00:00.218120  [DEBUG   ][CDbMgrServer::HandleSendPluto]u.GenLen()=125
16:00:00.177392  [DEBUG   ][CDbMgrServer::AddRecvMsg]u.GenLen()=295
16:00:00.177450  [DEBUG   ][CDbMgrServer::AddRecvMsg]u.GenLen()=290
16:00:00.177470  [DEBUG   ][CDbMgrServer::AddRecvMsg]u.GenLen()=325
16:00:00.177491  [DEBUG   ][CDbMgrServer::AddRecvMsg]u.GenLen()=324
16:00:00.177519  [DEBUG   ][CDbMgrServer::AddRecvMsg]u.GenLen()=345
16:00:00.177545  [DEBUG   ][CDbMgrServer::AddRecvMsg]u.GenLen()=559
16:00:00.177566  [DEBUG   ][CDbMgrServer::AddRecvMsg]u.GenLen()=585
16:00:00.208935  [WARNING ][CPluto::resize]msg=24673;old=256;new=4096
16:00:00.209010  [DEBUG   ][CDbOper::TableSelect]len=2095
16:00:00.209121  [DEBUG   ][CDbOper::TableSelect]len=128
16:00:00.209156  [WARNING ][CPluto::resize]msg=24673;old=256;new=4096
16:00:00.209193  [DEBUG   ][CDbOper::TableSelect]len=1133
16:00:00.209240  [DEBUG   ][CDbOper::TableSelect]len=120
16:00:00.209265  [DEBUG   ][CDbOper::TableSelect]len=118
16:00:00.209361  [DEBUG   ][CDbOper::TableSelect]len=125
16:00:00.209382  [WARNING ][CPluto::resize]msg=24673;old=256;new=4096
16:00:00.209414  [DEBUG   ][CDbOper::TableSelect]len=2100
16:00:00.227696  [DEBUG   ][CDbMgrServer::HandleSendPluto]u.GenLen()=2095
16:00:00.227743  [DEBUG   ][CDbMgrServer::HandleSendPluto]u.GenLen()=128
16:00:00.227759  [DEBUG   ][CDbMgrServer::HandleSendPluto]u.GenLen()=1133
16:00:00.227773  [DEBUG   ][CDbMgrServer::HandleSendPluto]u.GenLen()=120
16:00:00.227787  [DEBUG   ][CDbMgrServer::HandleSendPluto]u.GenLen()=118
16:00:00.227800  [DEBUG   ][CDbMgrServer::HandleSendPluto]u.GenLen()=125
16:00:00.227814  [DEBUG   ][CDbMgrServer::HandleSendPluto]u.GenLen()=2100
17:00:00.167373  [DEBUG   ][CDbMgrServer::AddRecvMsg]u.GenLen()=295
17:00:00.167424  [DEBUG   ][CDbMgrServer::AddRecvMsg]u.GenLen()=290
17:00:00.167446  [DEBUG   ][CDbMgrServer::AddRecvMsg]u.GenLen()=325
17:00:00.167464  [DEBUG   ][CDbMgrServer::AddRecvMsg]u.GenLen()=324
17:00:00.167481  [DEBUG   ][CDbMgrServer::AddRecvMsg]u.GenLen()=345
17:00:00.167499  [DEBUG   ][CDbMgrServer::AddRecvMsg]u.GenLen()=559
17:00:00.167516  [DEBUG   ][CDbMgrServer::AddRecvMsg]u.GenLen()=585
17:00:00.205368  [WARNING ][CPluto::resize]msg=24673;old=256;new=4096
17:00:00.205368  [DEBUG   ][CDbOper::TableSelect]len=118
17:00:00.205553  [WARNING ][CPluto::resize]msg=24673;old=256;new=4096
17:00:00.205582  [DEBUG   ][CDbOper::TableSelect]len=2095
17:00:00.205612  [DEBUG   ][CDbOper::TableSelect]len=128
17:00:00.205721  [WARNING ][CPluto::resize]msg=24673;old=256;new=4096
17:00:00.205749  [DEBUG   ][CDbOper::TableSelect]len=2100
17:00:00.205458  [DEBUG   ][CDbOper::TableSelect]len=1133
17:00:00.205812  [DEBUG   ][CDbOper::TableSelect]len=120
17:00:00.205761  [DEBUG   ][CDbOper::TableSelect]len=125
17:00:00.217616  [DEBUG   ][CDbMgrServer::HandleSendPluto]u.GenLen()=118
17:00:00.217644  [DEBUG   ][CDbMgrServer::HandleSendPluto]u.GenLen()=1133
17:00:00.217658  [DEBUG   ][CDbMgrServer::HandleSendPluto]u.GenLen()=2095
17:00:00.217672  [DEBUG   ][CDbMgrServer::HandleSendPluto]u.GenLen()=128
17:00:00.217685  [DEBUG   ][CDbMgrServer::HandleSendPluto]u.GenLen()=2100
17:00:00.217698  [DEBUG   ][CDbMgrServer::HandleSendPluto]u.GenLen()=125
17:00:00.217712  [DEBUG   ][CDbMgrServer::HandleSendPluto]u.GenLen()=120
18:00:00.167685  [DEBUG   ][CDbMgrServer::AddRecvMsg]u.GenLen()=295
18:00:00.167791  [DEBUG   ][CDbMgrServer::AddRecvMsg]u.GenLen()=290
18:00:00.167821  [DEBUG   ][CDbMgrServer::AddRecvMsg]u.GenLen()=325
18:00:00.167851  [DEBUG   ][CDbMgrServer::AddRecvMsg]u.GenLen()=324
18:00:00.167878  [DEBUG   ][CDbMgrServer::AddRecvMsg]u.GenLen()=345
18:00:00.167905  [DEBUG   ][CDbMgrServer::AddRecvMsg]u.GenLen()=559
18:00:00.167932  [DEBUG   ][CDbMgrServer::AddRecvMsg]u.GenLen()=585
18:00:00.196731  [WARNING ][CPluto::resize]msg=24673;old=256;new=4096
18:00:00.196856  [DEBUG   ][CDbOper::TableSelect]len=2100
18:00:00.196940  [WARNING ][CPluto::resize]msg=24673;old=256;new=4096
18:00:00.197035  [DEBUG   ][CDbOper::TableSelect]len=1133
18:00:00.196876  [DEBUG   ][CDbOper::TableSelect]len=118
18:00:00.197207  [DEBUG   ][CDbOper::TableSelect]len=128
18:00:00.197343  [DEBUG   ][CDbOper::TableSelect]len=125
18:00:00.197388  [WARNING ][CPluto::resize]msg=24673;old=256;new=4096
18:00:00.197407  [DEBUG   ][CDbOper::TableSelect]len=120
18:00:00.197477  [DEBUG   ][CDbOper::TableSelect]len=2095
18:00:00.218069  [DEBUG   ][CDbMgrServer::HandleSendPluto]u.GenLen()=2100
18:00:00.218172  [DEBUG   ][CDbMgrServer::HandleSendPluto]u.GenLen()=118
18:00:00.218197  [DEBUG   ][CDbMgrServer::HandleSendPluto]u.GenLen()=1133
18:00:00.218219  [DEBUG   ][CDbMgrServer::HandleSendPluto]u.GenLen()=128
18:00:00.218241  [DEBUG   ][CDbMgrServer::HandleSendPluto]u.GenLen()=125
18:00:00.218263  [DEBUG   ][CDbMgrServer::HandleSendPluto]u.GenLen()=120
18:00:00.218285  [DEBUG   ][CDbMgrServer::HandleSendPluto]u.GenLen()=2095
19:00:00.167716  [DEBUG   ][CDbMgrServer::AddRecvMsg]u.GenLen()=295
19:00:00.167826  [DEBUG   ][CDbMgrServer::AddRecvMsg]u.GenLen()=290
19:00:00.167860  [DEBUG   ][CDbMgrServer::AddRecvMsg]u.GenLen()=325
19:00:00.167893  [DEBUG   ][CDbMgrServer::AddRecvMsg]u.GenLen()=324
19:00:00.167923  [DEBUG   ][CDbMgrServer::AddRecvMsg]u.GenLen()=345
19:00:00.167954  [DEBUG   ][CDbMgrServer::AddRecvMsg]u.GenLen()=559
19:00:00.167985  [DEBUG   ][CDbMgrServer::AddRecvMsg]u.GenLen()=585
19:00:00.171242  [WARNING ][CPluto::resize]msg=24673;old=256;new=4096
19:00:00.171301  [DEBUG   ][CDbOper::TableSelect]len=2100
19:00:00.171466  [WARNING ][CPluto::resize]msg=24673;old=256;new=4096
19:00:00.171503  [DEBUG   ][CDbOper::TableSelect]len=1133
19:00:00.171547  [DEBUG   ][CDbOper::TableSelect]len=118
19:00:00.171659  [DEBUG   ][CDbOper::TableSelect]len=120
19:00:00.171787  [WARNING ][CPluto::resize]msg=24673;old=256;new=4096
19:00:00.171882  [DEBUG   ][CDbOper::TableSelect]len=2095
19:00:00.172062  [DEBUG   ][CDbOper::TableSelect]len=128
19:00:00.172124  [DEBUG   ][CDbOper::TableSelect]len=125
19:00:00.218116  [DEBUG   ][CDbMgrServer::HandleSendPluto]u.GenLen()=2100
19:00:00.218198  [DEBUG   ][CDbMgrServer::HandleSendPluto]u.GenLen()=1133
19:00:00.218214  [DEBUG   ][CDbMgrServer::HandleSendPluto]u.GenLen()=118
19:00:00.218229  [DEBUG   ][CDbMgrServer::HandleSendPluto]u.GenLen()=120
19:00:00.218243  [DEBUG   ][CDbMgrServer::HandleSendPluto]u.GenLen()=2095
19:00:00.218257  [DEBUG   ][CDbMgrServer::HandleSendPluto]u.GenLen()=128
19:00:00.218271  [DEBUG   ][CDbMgrServer::HandleSendPluto]u.GenLen()=125
20:00:00.167481  [DEBUG   ][CDbMgrServer::AddRecvMsg]u.GenLen()=295
20:00:00.167549  [DEBUG   ][CDbMgrServer::AddRecvMsg]u.GenLen()=290
20:00:00.167572  [DEBUG   ][CDbMgrServer::AddRecvMsg]u.GenLen()=325
20:00:00.167606  [DEBUG   ][CDbMgrServer::AddRecvMsg]u.GenLen()=324
20:00:00.167624  [DEBUG   ][CDbMgrServer::AddRecvMsg]u.GenLen()=345
20:00:00.167641  [DEBUG   ][CDbMgrServer::AddRecvMsg]u.GenLen()=559
20:00:00.167657  [DEBUG   ][CDbMgrServer::AddRecvMsg]u.GenLen()=585
20:00:00.213191  [WARNING ][CPluto::resize]msg=24673;old=256;new=4096
20:00:00.213267  [DEBUG   ][CDbOper::TableSelect]len=118
20:00:00.213284  [DEBUG   ][CDbOper::TableSelect]len=2095
20:00:00.213442  [WARNING ][CPluto::resize]msg=24673;old=256;new=4096
20:00:00.213470  [DEBUG   ][CDbOper::TableSelect]len=128
20:00:00.213502  [WARNING ][CPluto::resize]msg=24673;old=256;new=4096
20:00:00.213524  [DEBUG   ][CDbOper::TableSelect]len=1133
20:00:00.213475  [DEBUG   ][CDbOper::TableSelect]len=2100
20:00:00.213634  [DEBUG   ][CDbOper::TableSelect]len=125
20:00:00.213691  [DEBUG   ][CDbOper::TableSelect]len=120
20:00:00.217774  [DEBUG   ][CDbMgrServer::HandleSendPluto]u.GenLen()=118
20:00:00.217814  [DEBUG   ][CDbMgrServer::HandleSendPluto]u.GenLen()=2095
20:00:00.217841  [DEBUG   ][CDbMgrServer::HandleSendPluto]u.GenLen()=128
20:00:00.217866  [DEBUG   ][CDbMgrServer::HandleSendPluto]u.GenLen()=2100
20:00:00.217891  [DEBUG   ][CDbMgrServer::HandleSendPluto]u.GenLen()=1133
20:00:00.217917  [DEBUG   ][CDbMgrServer::HandleSendPluto]u.GenLen()=125
20:00:00.217942  [DEBUG   ][CDbMgrServer::HandleSendPluto]u.GenLen()=120
21:00:00.167511  [DEBUG   ][CDbMgrServer::AddRecvMsg]u.GenLen()=295
21:00:00.167566  [DEBUG   ][CDbMgrServer::AddRecvMsg]u.GenLen()=290
21:00:00.167585  [DEBUG   ][CDbMgrServer::AddRecvMsg]u.GenLen()=325
21:00:00.167604  [DEBUG   ][CDbMgrServer::AddRecvMsg]u.GenLen()=324
21:00:00.167621  [DEBUG   ][CDbMgrServer::AddRecvMsg]u.GenLen()=345
21:00:00.167638  [DEBUG   ][CDbMgrServer::AddRecvMsg]u.GenLen()=559
21:00:00.167655  [DEBUG   ][CDbMgrServer::AddRecvMsg]u.GenLen()=585
21:00:00.194386  [WARNING ][CPluto::resize]msg=24673;old=256;new=4096
21:00:00.194459  [DEBUG   ][CDbOper::TableSelect]len=2100
21:00:00.194576  [WARNING ][CPluto::resize]msg=24673;old=256;new=4096
21:00:00.194596  [DEBUG   ][CDbOper::TableSelect]len=118
21:00:00.194650  [WARNING ][CPluto::resize]msg=24673;old=256;new=4096
21:00:00.194677  [DEBUG   ][CDbOper::TableSelect]len=2095
21:00:00.194736  [DEBUG   ][CDbOper::TableSelect]len=128
21:00:00.194781  [DEBUG   ][CDbOper::TableSelect]len=120
21:00:00.194786  [DEBUG   ][CDbOper::TableSelect]len=125
21:00:00.194605  [DEBUG   ][CDbOper::TableSelect]len=1133
21:00:00.217768  [DEBUG   ][CDbMgrServer::HandleSendPluto]u.GenLen()=2100
21:00:00.217818  [DEBUG   ][CDbMgrServer::HandleSendPluto]u.GenLen()=118
21:00:00.217834  [DEBUG   ][CDbMgrServer::HandleSendPluto]u.GenLen()=1133
21:00:00.217848  [DEBUG   ][CDbMgrServer::HandleSendPluto]u.GenLen()=2095
21:00:00.217862  [DEBUG   ][CDbMgrServer::HandleSendPluto]u.GenLen()=128
21:00:00.217876  [DEBUG   ][CDbMgrServer::HandleSendPluto]u.GenLen()=120
21:00:00.217889  [DEBUG   ][CDbMgrServer::HandleSendPluto]u.GenLen()=125
22:00:00.167571  [DEBUG   ][CDbMgrServer::AddRecvMsg]u.GenLen()=295
22:00:00.167634  [DEBUG   ][CDbMgrServer::AddRecvMsg]u.GenLen()=290
22:00:00.167670  [DEBUG   ][CDbMgrServer::AddRecvMsg]u.GenLen()=325
22:00:00.167700  [DEBUG   ][CDbMgrServer::AddRecvMsg]u.GenLen()=324
22:00:00.167720  [DEBUG   ][CDbMgrServer::AddRecvMsg]u.GenLen()=345
22:00:00.167736  [DEBUG   ][CDbMgrServer::AddRecvMsg]u.GenLen()=559
22:00:00.167754  [DEBUG   ][CDbMgrServer::AddRecvMsg]u.GenLen()=585
22:00:00.187310  [WARNING ][CPluto::resize]msg=24673;old=256;new=4096
22:00:00.187337  [WARNING ][CPluto::resize]msg=24673;old=256;new=4096
22:00:00.187409  [DEBUG   ][CDbOper::TableSelect]len=2100
22:00:00.187447  [DEBUG   ][CDbOper::TableSelect]len=2095
22:00:00.187611  [DEBUG   ][CDbOper::TableSelect]len=118
22:00:00.187625  [WARNING ][CPluto::resize]msg=24673;old=256;new=4096
22:00:00.187653  [DEBUG   ][CDbOper::TableSelect]len=1133
22:00:00.187729  [DEBUG   ][CDbOper::TableSelect]len=128
22:00:00.187771  [DEBUG   ][CDbOper::TableSelect]len=120
22:00:00.187846  [DEBUG   ][CDbOper::TableSelect]len=125
22:00:00.217869  [DEBUG   ][CDbMgrServer::HandleSendPluto]u.GenLen()=2100
22:00:00.217968  [DEBUG   ][CDbMgrServer::HandleSendPluto]u.GenLen()=2095
22:00:00.217985  [DEBUG   ][CDbMgrServer::HandleSendPluto]u.GenLen()=118
22:00:00.217999  [DEBUG   ][CDbMgrServer::HandleSendPluto]u.GenLen()=1133
22:00:00.218012  [DEBUG   ][CDbMgrServer::HandleSendPluto]u.GenLen()=128
22:00:00.218026  [DEBUG   ][CDbMgrServer::HandleSendPluto]u.GenLen()=120
22:00:00.218039  [DEBUG   ][CDbMgrServer::HandleSendPluto]u.GenLen()=125
23:00:00.167688  [DEBUG   ][CDbMgrServer::AddRecvMsg]u.GenLen()=295
23:00:00.167752  [DEBUG   ][CDbMgrServer::AddRecvMsg]u.GenLen()=290
23:00:00.167807  [DEBUG   ][CDbMgrServer::AddRecvMsg]u.GenLen()=325
23:00:00.167838  [DEBUG   ][CDbMgrServer::AddRecvMsg]u.GenLen()=324
23:00:00.167868  [DEBUG   ][CDbMgrServer::AddRecvMsg]u.GenLen()=345
23:00:00.167897  [DEBUG   ][CDbMgrServer::AddRecvMsg]u.GenLen()=559
23:00:00.167927  [DEBUG   ][CDbMgrServer::AddRecvMsg]u.GenLen()=585
23:00:00.217253  [DEBUG   ][CDbOper::TableSelect]len=118
23:00:00.217327  [WARNING ][CPluto::resize]msg=24673;old=256;new=4096
23:00:00.217375  [DEBUG   ][CDbOper::TableSelect]len=2095
23:00:00.217457  [WARNING ][CPluto::resize]msg=24673;old=256;new=4096
23:00:00.217495  [DEBUG   ][CDbOper::TableSelect]len=2100
23:00:00.217551  [WARNING ][CPluto::resize]msg=24673;old=256;new=4096
23:00:00.217590  [DEBUG   ][CDbOper::TableSelect]len=1133
23:00:00.217636  [DEBUG   ][CDbOper::TableSelect]len=128
23:00:00.217649  [DEBUG   ][CDbOper::TableSelect]len=120
23:00:00.217705  [DEBUG   ][CDbOper::TableSelect]len=125
23:00:00.218049  [DEBUG   ][CDbMgrServer::HandleSendPluto]u.GenLen()=118
23:00:00.218084  [DEBUG   ][CDbMgrServer::HandleSendPluto]u.GenLen()=2095
23:00:00.218110  [DEBUG   ][CDbMgrServer::HandleSendPluto]u.GenLen()=2100
23:00:00.218134  [DEBUG   ][CDbMgrServer::HandleSendPluto]u.GenLen()=1133
23:00:00.218157  [DEBUG   ][CDbMgrServer::HandleSendPluto]u.GenLen()=128
23:00:00.218181  [DEBUG   ][CDbMgrServer::HandleSendPluto]u.GenLen()=120
23:00:00.218205  [DEBUG   ][CDbMgrServer::HandleSendPluto]u.GenLen()=125
