00:00:08.067196  [DEBUG   ][CLogServer::AddRecvMsg]u.GenLen()=101
00:05:08.067345  [DEBUG   ][CLogServer::AddRecvMsg]u.GenLen()=101
00:10:08.067229  [DEBUG   ][CLogServer::AddRecvMsg]u.GenLen()=101
00:15:08.067313  [DEBUG   ][CLogServer::AddRecvMsg]u.GenLen()=101
00:19:54.813498  [DEBUG   ][CLogServer::AddRecvMsg]u.GenLen()=380
00:19:54.813555  [DEBUG   ][CLogServer::AddRecvMsg]u.GenLen()=355
00:20:08.067228  [DEBUG   ][CLogServer::AddRecvMsg]u.GenLen()=101
00:20:08.603043  [DEBUG   ][CLogServer::AddRecvMsg]u.GenLen()=238
00:20:08.603095  [DEBUG   ][CLogServer::AddRecvMsg]u.GenLen()=214
00:20:08.603115  [DEBUG   ][CLogServer::AddRecvMsg]u.GenLen()=236
00:20:08.603132  [DEBUG   ][CLogServer::AddRecvMsg]u.GenLen()=212
00:20:08.603151  [DEBUG   ][CLogServer::AddRecvMsg]u.GenLen()=217
00:20:17.773319  [DEBUG   ][CLogServer::AddRecvMsg]u.GenLen()=218
00:20:17.773375  [DEBUG   ][CLogServer::AddRecvMsg]u.GenLen()=236
00:20:17.773403  [DEBUG   ][CLogServer::AddRecvMsg]u.GenLen()=266
00:25:08.067152  [DEBUG   ][CLogServer::AddRecvMsg]u.GenLen()=101
00:30:08.067327  [DEBUG   ][CLogServer::AddRecvMsg]u.GenLen()=101
00:31:06.444539  [DEBUG   ][CLogServer::AddRecvMsg]u.GenLen()=465
00:31:14.764347  [DEBUG   ][CLogServer::AddRecvMsg]u.GenLen()=380
00:31:14.764390  [DEBUG   ][CLogServer::AddRecvMsg]u.GenLen()=355
00:34:38.305970  [DEBUG   ][CLogServer::AddRecvMsg]u.GenLen()=239
00:34:38.306023  [DEBUG   ][CLogServer::AddRecvMsg]u.GenLen()=236
00:34:38.306043  [DEBUG   ][CLogServer::AddRecvMsg]u.GenLen()=219
00:34:38.306064  [DEBUG   ][CLogServer::AddRecvMsg]u.GenLen()=219
00:34:38.306082  [DEBUG   ][CLogServer::AddRecvMsg]u.GenLen()=218
00:34:38.306100  [DEBUG   ][CLogServer::AddRecvMsg]u.GenLen()=238
00:35:08.067273  [DEBUG   ][CLogServer::AddRecvMsg]u.GenLen()=101
00:37:02.351243  [DEBUG   ][CLogServer::AddRecvMsg]u.GenLen()=217
00:37:02.351370  [DEBUG   ][CLogServer::AddRecvMsg]u.GenLen()=238
00:37:23.069743  [DEBUG   ][CLogServer::AddRecvMsg]u.GenLen()=239
00:37:23.069806  [DEBUG   ][CLogServer::AddRecvMsg]u.GenLen()=236
00:37:32.121441  [DEBUG   ][CLogServer::AddRecvMsg]u.GenLen()=238
00:37:40.320968  [DEBUG   ][CLogServer::AddRecvMsg]u.GenLen()=238
00:38:00.614935  [DEBUG   ][CLogServer::AddRecvMsg]u.GenLen()=236
00:38:00.614996  [DEBUG   ][CLogServer::AddRecvMsg]u.GenLen()=217
00:38:07.672178  [DEBUG   ][CLogServer::AddRecvMsg]u.GenLen()=236
00:38:07.672227  [DEBUG   ][CLogServer::AddRecvMsg]u.GenLen()=217
00:38:07.672245  [DEBUG   ][CLogServer::AddRecvMsg]u.GenLen()=236
00:38:07.672263  [DEBUG   ][CLogServer::AddRecvMsg]u.GenLen()=217
00:38:07.672279  [DEBUG   ][CLogServer::AddRecvMsg]u.GenLen()=236
00:38:07.672297  [DEBUG   ][CLogServer::AddRecvMsg]u.GenLen()=217
00:40:08.067305  [DEBUG   ][CLogServer::AddRecvMsg]u.GenLen()=101
00:41:06.260113  [DEBUG   ][CLogServer::AddRecvMsg]u.GenLen()=217
00:41:06.260152  [DEBUG   ][CLogServer::AddRecvMsg]u.GenLen()=238
00:41:06.260171  [DEBUG   ][CLogServer::AddRecvMsg]u.GenLen()=239
00:41:26.434690  [DEBUG   ][CLogServer::AddRecvMsg]u.GenLen()=238
00:41:36.195674  [DEBUG   ][CLogServer::AddRecvMsg]u.GenLen()=218
00:41:56.012288  [DEBUG   ][CLogServer::AddRecvMsg]u.GenLen()=238
00:41:56.012347  [DEBUG   ][CLogServer::AddRecvMsg]u.GenLen()=238
00:41:56.012399  [DEBUG   ][CLogServer::AddRecvMsg]u.GenLen()=238
00:42:28.375863  [DEBUG   ][CLogServer::AddRecvMsg]u.GenLen()=236
00:42:28.375928  [DEBUG   ][CLogServer::AddRecvMsg]u.GenLen()=217
00:42:38.334082  [DEBUG   ][CLogServer::AddRecvMsg]u.GenLen()=217
00:42:38.334142  [DEBUG   ][CLogServer::AddRecvMsg]u.GenLen()=217
00:42:46.888561  [DEBUG   ][CLogServer::AddRecvMsg]u.GenLen()=218
00:45:08.067210  [DEBUG   ][CLogServer::AddRecvMsg]u.GenLen()=101
00:46:17.156326  [DEBUG   ][CLogServer::AddRecvMsg]u.GenLen()=217
00:46:17.156370  [DEBUG   ][CLogServer::AddRecvMsg]u.GenLen()=238
00:46:17.156389  [DEBUG   ][CLogServer::AddRecvMsg]u.GenLen()=239
00:47:08.774388  [DEBUG   ][CLogServer::AddRecvMsg]u.GenLen()=239
00:47:08.774451  [DEBUG   ][CLogServer::AddRecvMsg]u.GenLen()=236
00:50:08.067237  [DEBUG   ][CLogServer::AddRecvMsg]u.GenLen()=101
00:55:08.067129  [DEBUG   ][CLogServer::AddRecvMsg]u.GenLen()=101
00:56:10.722033  [DEBUG   ][CLogServer::AddRecvMsg]u.GenLen()=466
01:00:08.067258  [DEBUG   ][CLogServer::AddRecvMsg]u.GenLen()=101
01:02:08.631834  [DEBUG   ][CLogServer::AddRecvMsg]u.GenLen()=380
01:02:08.631880  [DEBUG   ][CLogServer::AddRecvMsg]u.GenLen()=355
01:02:39.066202  [DEBUG   ][CLogServer::AddRecvMsg]u.GenLen()=238
01:05:08.067247  [DEBUG   ][CLogServer::AddRecvMsg]u.GenLen()=101
01:05:39.292189  [DEBUG   ][CLogServer::AddRecvMsg]u.GenLen()=217
01:05:39.292232  [DEBUG   ][CLogServer::AddRecvMsg]u.GenLen()=238
01:05:39.292252  [DEBUG   ][CLogServer::AddRecvMsg]u.GenLen()=240
01:06:16.263298  [DEBUG   ][CLogServer::AddRecvMsg]u.GenLen()=238
01:10:08.067432  [DEBUG   ][CLogServer::AddRecvMsg]u.GenLen()=101
01:11:34.322701  [DEBUG   ][CLogServer::AddRecvMsg]u.GenLen()=465
01:15:08.067093  [DEBUG   ][CLogServer::AddRecvMsg]u.GenLen()=101
01:17:10.608699  [DEBUG   ][CLogServer::AddRecvMsg]u.GenLen()=379
01:17:10.608744  [DEBUG   ][CLogServer::AddRecvMsg]u.GenLen()=355
01:17:21.959905  [DEBUG   ][CLogServer::AddRecvMsg]u.GenLen()=239
01:17:41.133935  [DEBUG   ][CLogServer::AddRecvMsg]u.GenLen()=236
01:18:07.964599  [DEBUG   ][CLogServer::AddRecvMsg]u.GenLen()=237
01:20:08.067274  [DEBUG   ][CLogServer::AddRecvMsg]u.GenLen()=101
01:21:36.092607  [DEBUG   ][CLogServer::AddRecvMsg]u.GenLen()=236
01:21:40.503151  [DEBUG   ][CLogServer::AddRecvMsg]u.GenLen()=237
01:21:45.413817  [DEBUG   ][CLogServer::AddRecvMsg]u.GenLen()=237
01:21:46.326863  [DEBUG   ][CLogServer::AddRecvMsg]u.GenLen()=237
01:21:59.756709  [DEBUG   ][CLogServer::AddRecvMsg]u.GenLen()=237
01:22:06.561308  [DEBUG   ][CLogServer::AddRecvMsg]u.GenLen()=237
01:22:07.462982  [DEBUG   ][CLogServer::AddRecvMsg]u.GenLen()=237
01:22:12.182189  [DEBUG   ][CLogServer::AddRecvMsg]u.GenLen()=237
01:22:12.680780  [DEBUG   ][CLogServer::AddRecvMsg]u.GenLen()=237
01:22:33.823602  [DEBUG   ][CLogServer::AddRecvMsg]u.GenLen()=237
01:22:33.823648  [DEBUG   ][CLogServer::AddRecvMsg]u.GenLen()=237
01:23:03.440541  [DEBUG   ][CLogServer::AddRecvMsg]u.GenLen()=238
01:23:03.440600  [DEBUG   ][CLogServer::AddRecvMsg]u.GenLen()=238
01:23:03.440636  [DEBUG   ][CLogServer::AddRecvMsg]u.GenLen()=217
01:23:03.836024  [DEBUG   ][CLogServer::AddRecvMsg]u.GenLen()=238
01:23:51.140314  [DEBUG   ][CLogServer::AddRecvMsg]u.GenLen()=236
01:25:08.067324  [DEBUG   ][CLogServer::AddRecvMsg]u.GenLen()=101
01:28:57.620789  [DEBUG   ][CLogServer::AddRecvMsg]u.GenLen()=465
01:30:08.067297  [DEBUG   ][CLogServer::AddRecvMsg]u.GenLen()=101
01:35:08.067259  [DEBUG   ][CLogServer::AddRecvMsg]u.GenLen()=101
01:40:08.067111  [DEBUG   ][CLogServer::AddRecvMsg]u.GenLen()=101
01:45:08.067299  [DEBUG   ][CLogServer::AddRecvMsg]u.GenLen()=101
01:50:08.067140  [DEBUG   ][CLogServer::AddRecvMsg]u.GenLen()=101
01:55:08.067159  [DEBUG   ][CLogServer::AddRecvMsg]u.GenLen()=101
02:00:08.067475  [DEBUG   ][CLogServer::AddRecvMsg]u.GenLen()=101
02:05:08.067261  [DEBUG   ][CLogServer::AddRecvMsg]u.GenLen()=101
02:10:08.067129  [DEBUG   ][CLogServer::AddRecvMsg]u.GenLen()=101
02:15:08.067126  [DEBUG   ][CLogServer::AddRecvMsg]u.GenLen()=101
02:20:08.067348  [DEBUG   ][CLogServer::AddRecvMsg]u.GenLen()=101
02:25:08.067178  [DEBUG   ][CLogServer::AddRecvMsg]u.GenLen()=101
02:30:08.067182  [DEBUG   ][CLogServer::AddRecvMsg]u.GenLen()=101
02:35:08.067196  [DEBUG   ][CLogServer::AddRecvMsg]u.GenLen()=101
02:40:08.067461  [DEBUG   ][CLogServer::AddRecvMsg]u.GenLen()=101
02:45:08.067282  [DEBUG   ][CLogServer::AddRecvMsg]u.GenLen()=101
02:50:08.067288  [DEBUG   ][CLogServer::AddRecvMsg]u.GenLen()=101
02:55:08.067390  [DEBUG   ][CLogServer::AddRecvMsg]u.GenLen()=101
03:00:08.067276  [DEBUG   ][CLogServer::AddRecvMsg]u.GenLen()=101
03:05:08.067448  [DEBUG   ][CLogServer::AddRecvMsg]u.GenLen()=101
03:10:08.067171  [DEBUG   ][CLogServer::AddRecvMsg]u.GenLen()=101
03:15:08.067263  [DEBUG   ][CLogServer::AddRecvMsg]u.GenLen()=101
03:20:08.067222  [DEBUG   ][CLogServer::AddRecvMsg]u.GenLen()=101
03:25:08.067259  [DEBUG   ][CLogServer::AddRecvMsg]u.GenLen()=101
03:30:08.067139  [DEBUG   ][CLogServer::AddRecvMsg]u.GenLen()=101
03:35:08.067218  [DEBUG   ][CLogServer::AddRecvMsg]u.GenLen()=101
03:40:08.067353  [DEBUG   ][CLogServer::AddRecvMsg]u.GenLen()=101
03:45:08.067221  [DEBUG   ][CLogServer::AddRecvMsg]u.GenLen()=101
03:50:08.067228  [DEBUG   ][CLogServer::AddRecvMsg]u.GenLen()=101
03:55:08.067251  [DEBUG   ][CLogServer::AddRecvMsg]u.GenLen()=101
04:00:08.067342  [DEBUG   ][CLogServer::AddRecvMsg]u.GenLen()=101
04:05:08.067328  [DEBUG   ][CLogServer::AddRecvMsg]u.GenLen()=101
04:10:08.067160  [DEBUG   ][CLogServer::AddRecvMsg]u.GenLen()=101
04:15:08.067105  [DEBUG   ][CLogServer::AddRecvMsg]u.GenLen()=101
04:20:08.067387  [DEBUG   ][CLogServer::AddRecvMsg]u.GenLen()=101
04:25:08.067243  [DEBUG   ][CLogServer::AddRecvMsg]u.GenLen()=101
04:30:08.067340  [DEBUG   ][CLogServer::AddRecvMsg]u.GenLen()=101
04:35:08.067158  [DEBUG   ][CLogServer::AddRecvMsg]u.GenLen()=101
04:40:08.067404  [DEBUG   ][CLogServer::AddRecvMsg]u.GenLen()=101
04:45:08.067267  [DEBUG   ][CLogServer::AddRecvMsg]u.GenLen()=101
04:50:08.067403  [DEBUG   ][CLogServer::AddRecvMsg]u.GenLen()=101
04:55:08.067314  [DEBUG   ][CLogServer::AddRecvMsg]u.GenLen()=101
05:00:08.067428  [DEBUG   ][CLogServer::AddRecvMsg]u.GenLen()=101
05:05:08.067130  [DEBUG   ][CLogServer::AddRecvMsg]u.GenLen()=101
05:10:08.067141  [DEBUG   ][CLogServer::AddRecvMsg]u.GenLen()=101
05:15:08.067328  [DEBUG   ][CLogServer::AddRecvMsg]u.GenLen()=101
05:20:08.067255  [DEBUG   ][CLogServer::AddRecvMsg]u.GenLen()=101
05:25:08.067178  [DEBUG   ][CLogServer::AddRecvMsg]u.GenLen()=101
05:30:08.067137  [DEBUG   ][CLogServer::AddRecvMsg]u.GenLen()=101
05:35:08.067295  [DEBUG   ][CLogServer::AddRecvMsg]u.GenLen()=101
05:40:08.067342  [DEBUG   ][CLogServer::AddRecvMsg]u.GenLen()=101
05:45:08.067306  [DEBUG   ][CLogServer::AddRecvMsg]u.GenLen()=101
05:50:08.067454  [DEBUG   ][CLogServer::AddRecvMsg]u.GenLen()=101
05:55:08.067296  [DEBUG   ][CLogServer::AddRecvMsg]u.GenLen()=101
06:00:08.067272  [DEBUG   ][CLogServer::AddRecvMsg]u.GenLen()=101
06:05:08.067292  [DEBUG   ][CLogServer::AddRecvMsg]u.GenLen()=101
06:10:08.067534  [DEBUG   ][CLogServer::AddRecvMsg]u.GenLen()=101
06:15:08.067127  [DEBUG   ][CLogServer::AddRecvMsg]u.GenLen()=101
06:20:08.067177  [DEBUG   ][CLogServer::AddRecvMsg]u.GenLen()=101
06:25:08.067243  [DEBUG   ][CLogServer::AddRecvMsg]u.GenLen()=101
06:30:08.067273  [DEBUG   ][CLogServer::AddRecvMsg]u.GenLen()=101
06:35:08.067128  [DEBUG   ][CLogServer::AddRecvMsg]u.GenLen()=101
06:40:08.067282  [DEBUG   ][CLogServer::AddRecvMsg]u.GenLen()=101
06:45:08.067346  [DEBUG   ][CLogServer::AddRecvMsg]u.GenLen()=101
06:50:08.067290  [DEBUG   ][CLogServer::AddRecvMsg]u.GenLen()=101
06:55:08.067274  [DEBUG   ][CLogServer::AddRecvMsg]u.GenLen()=101
07:00:08.067315  [DEBUG   ][CLogServer::AddRecvMsg]u.GenLen()=101
07:05:08.067282  [DEBUG   ][CLogServer::AddRecvMsg]u.GenLen()=101
07:10:08.067275  [DEBUG   ][CLogServer::AddRecvMsg]u.GenLen()=101
07:15:08.067155  [DEBUG   ][CLogServer::AddRecvMsg]u.GenLen()=101
07:20:08.067270  [DEBUG   ][CLogServer::AddRecvMsg]u.GenLen()=101
07:25:08.067395  [DEBUG   ][CLogServer::AddRecvMsg]u.GenLen()=101
07:30:08.067372  [DEBUG   ][CLogServer::AddRecvMsg]u.GenLen()=101
07:35:08.067169  [DEBUG   ][CLogServer::AddRecvMsg]u.GenLen()=101
07:40:08.067210  [DEBUG   ][CLogServer::AddRecvMsg]u.GenLen()=101
07:45:08.067419  [DEBUG   ][CLogServer::AddRecvMsg]u.GenLen()=101
07:50:08.067344  [DEBUG   ][CLogServer::AddRecvMsg]u.GenLen()=101
07:55:08.067315  [DEBUG   ][CLogServer::AddRecvMsg]u.GenLen()=101
08:00:08.067311  [DEBUG   ][CLogServer::AddRecvMsg]u.GenLen()=101
08:05:08.067362  [DEBUG   ][CLogServer::AddRecvMsg]u.GenLen()=101
08:10:08.067282  [DEBUG   ][CLogServer::AddRecvMsg]u.GenLen()=101
08:15:08.067253  [DEBUG   ][CLogServer::AddRecvMsg]u.GenLen()=101
08:20:08.067208  [DEBUG   ][CLogServer::AddRecvMsg]u.GenLen()=101
08:25:08.067160  [DEBUG   ][CLogServer::AddRecvMsg]u.GenLen()=101
08:30:08.067289  [DEBUG   ][CLogServer::AddRecvMsg]u.GenLen()=101
08:35:08.067314  [DEBUG   ][CLogServer::AddRecvMsg]u.GenLen()=101
08:40:08.067241  [DEBUG   ][CLogServer::AddRecvMsg]u.GenLen()=101
08:45:08.067392  [DEBUG   ][CLogServer::AddRecvMsg]u.GenLen()=101
08:50:08.067319  [DEBUG   ][CLogServer::AddRecvMsg]u.GenLen()=101
08:55:08.067392  [DEBUG   ][CLogServer::AddRecvMsg]u.GenLen()=101
09:00:08.067167  [DEBUG   ][CLogServer::AddRecvMsg]u.GenLen()=101
09:05:08.067312  [DEBUG   ][CLogServer::AddRecvMsg]u.GenLen()=101
09:10:08.067330  [DEBUG   ][CLogServer::AddRecvMsg]u.GenLen()=101
09:15:08.067192  [DEBUG   ][CLogServer::AddRecvMsg]u.GenLen()=101
09:20:08.067236  [DEBUG   ][CLogServer::AddRecvMsg]u.GenLen()=101
09:25:08.067228  [DEBUG   ][CLogServer::AddRecvMsg]u.GenLen()=101
09:30:08.067375  [DEBUG   ][CLogServer::AddRecvMsg]u.GenLen()=101
09:35:08.067194  [DEBUG   ][CLogServer::AddRecvMsg]u.GenLen()=101
09:40:08.067216  [DEBUG   ][CLogServer::AddRecvMsg]u.GenLen()=101
09:45:08.067493  [DEBUG   ][CLogServer::AddRecvMsg]u.GenLen()=101
09:50:08.067166  [DEBUG   ][CLogServer::AddRecvMsg]u.GenLen()=101
09:55:08.067112  [DEBUG   ][CLogServer::AddRecvMsg]u.GenLen()=101
10:00:08.067191  [DEBUG   ][CLogServer::AddRecvMsg]u.GenLen()=101
10:05:08.067387  [DEBUG   ][CLogServer::AddRecvMsg]u.GenLen()=101
10:10:08.067191  [DEBUG   ][CLogServer::AddRecvMsg]u.GenLen()=101
10:15:08.067283  [DEBUG   ][CLogServer::AddRecvMsg]u.GenLen()=101
10:20:08.067096  [DEBUG   ][CLogServer::AddRecvMsg]u.GenLen()=101
10:25:08.067110  [DEBUG   ][CLogServer::AddRecvMsg]u.GenLen()=101
10:30:08.067173  [DEBUG   ][CLogServer::AddRecvMsg]u.GenLen()=101
10:35:08.067170  [DEBUG   ][CLogServer::AddRecvMsg]u.GenLen()=101
10:40:08.067113  [DEBUG   ][CLogServer::AddRecvMsg]u.GenLen()=101
10:45:08.067345  [DEBUG   ][CLogServer::AddRecvMsg]u.GenLen()=101
10:50:08.067249  [DEBUG   ][CLogServer::AddRecvMsg]u.GenLen()=101
10:55:08.067122  [DEBUG   ][CLogServer::AddRecvMsg]u.GenLen()=101
11:00:08.067241  [DEBUG   ][CLogServer::AddRecvMsg]u.GenLen()=101
11:05:08.067142  [DEBUG   ][CLogServer::AddRecvMsg]u.GenLen()=101
11:10:08.067373  [DEBUG   ][CLogServer::AddRecvMsg]u.GenLen()=101
11:15:08.067181  [DEBUG   ][CLogServer::AddRecvMsg]u.GenLen()=101
11:20:08.067166  [DEBUG   ][CLogServer::AddRecvMsg]u.GenLen()=101
11:25:08.067166  [DEBUG   ][CLogServer::AddRecvMsg]u.GenLen()=101
11:30:08.067151  [DEBUG   ][CLogServer::AddRecvMsg]u.GenLen()=101
11:35:08.067098  [DEBUG   ][CLogServer::AddRecvMsg]u.GenLen()=101
11:40:08.067402  [DEBUG   ][CLogServer::AddRecvMsg]u.GenLen()=101
11:45:08.067180  [DEBUG   ][CLogServer::AddRecvMsg]u.GenLen()=101
11:50:08.067184  [DEBUG   ][CLogServer::AddRecvMsg]u.GenLen()=101
11:55:08.067099  [DEBUG   ][CLogServer::AddRecvMsg]u.GenLen()=101
12:00:08.067282  [DEBUG   ][CLogServer::AddRecvMsg]u.GenLen()=101
12:05:08.067376  [DEBUG   ][CLogServer::AddRecvMsg]u.GenLen()=101
12:10:08.067120  [DEBUG   ][CLogServer::AddRecvMsg]u.GenLen()=101
12:12:50.170973  [DEBUG   ][CLogServer::AddRecvMsg]u.GenLen()=381
12:12:50.171040  [DEBUG   ][CLogServer::AddRecvMsg]u.GenLen()=356
12:13:18.045982  [DEBUG   ][CLogServer::AddRecvMsg]u.GenLen()=239
12:13:18.046082  [DEBUG   ][CLogServer::AddRecvMsg]u.GenLen()=240
12:13:33.213704  [DEBUG   ][CLogServer::AddRecvMsg]u.GenLen()=238
12:13:37.230051  [DEBUG   ][CLogServer::AddRecvMsg]u.GenLen()=238
12:13:38.744347  [DEBUG   ][CLogServer::AddRecvMsg]u.GenLen()=238
12:13:40.052160  [DEBUG   ][CLogServer::AddRecvMsg]u.GenLen()=238
12:15:08.067095  [DEBUG   ][CLogServer::AddRecvMsg]u.GenLen()=101
12:15:46.222012  [DEBUG   ][CLogServer::AddRecvMsg]u.GenLen()=237
12:15:46.525192  [DEBUG   ][CLogServer::AddRecvMsg]u.GenLen()=237
12:16:08.684890  [DEBUG   ][CLogServer::AddRecvMsg]u.GenLen()=236
12:16:08.785502  [DEBUG   ][CLogServer::AddRecvMsg]u.GenLen()=236
12:16:25.736637  [DEBUG   ][CLogServer::AddRecvMsg]u.GenLen()=237
12:16:32.341981  [DEBUG   ][CLogServer::AddRecvMsg]u.GenLen()=236
12:16:32.443006  [DEBUG   ][CLogServer::AddRecvMsg]u.GenLen()=236
12:16:52.225881  [DEBUG   ][CLogServer::AddRecvMsg]u.GenLen()=237
12:17:07.607756  [DEBUG   ][CLogServer::AddRecvMsg]u.GenLen()=236
12:17:07.607803  [DEBUG   ][CLogServer::AddRecvMsg]u.GenLen()=237
12:17:07.694994  [DEBUG   ][CLogServer::AddRecvMsg]u.GenLen()=236
12:17:38.076874  [DEBUG   ][CLogServer::AddRecvMsg]u.GenLen()=237
12:17:51.658210  [DEBUG   ][CLogServer::AddRecvMsg]u.GenLen()=237
12:18:11.768421  [DEBUG   ][CLogServer::AddRecvMsg]u.GenLen()=238
12:18:11.769131  [DEBUG   ][CLogServer::AddRecvMsg]u.GenLen()=217
12:18:11.769170  [DEBUG   ][CLogServer::AddRecvMsg]u.GenLen()=238
12:18:11.769201  [DEBUG   ][CLogServer::AddRecvMsg]u.GenLen()=238
12:19:25.184342  [DEBUG   ][CLogServer::AddRecvMsg]u.GenLen()=235
12:19:25.184395  [DEBUG   ][CLogServer::AddRecvMsg]u.GenLen()=239
12:19:39.183485  [DEBUG   ][CLogServer::AddRecvMsg]u.GenLen()=236
12:20:08.067371  [DEBUG   ][CLogServer::AddRecvMsg]u.GenLen()=101
12:21:44.390788  [DEBUG   ][CLogServer::AddRecvMsg]u.GenLen()=218
12:24:04.217721  [DEBUG   ][CLogServer::AddRecvMsg]u.GenLen()=239
12:24:50.241712  [DEBUG   ][CLogServer::AddRecvMsg]u.GenLen()=237
12:24:54.648990  [DEBUG   ][CLogServer::AddRecvMsg]u.GenLen()=237
12:25:03.003659  [DEBUG   ][CLogServer::AddRecvMsg]u.GenLen()=237
12:25:08.067121  [DEBUG   ][CLogServer::AddRecvMsg]u.GenLen()=101
12:25:28.166637  [DEBUG   ][CLogServer::AddRecvMsg]u.GenLen()=236
12:25:28.256644  [DEBUG   ][CLogServer::AddRecvMsg]u.GenLen()=236
12:25:28.645214  [DEBUG   ][CLogServer::AddRecvMsg]u.GenLen()=236
12:25:28.645258  [DEBUG   ][CLogServer::AddRecvMsg]u.GenLen()=236
12:26:12.640350  [DEBUG   ][CLogServer::AddRecvMsg]u.GenLen()=237
12:26:13.089973  [DEBUG   ][CLogServer::AddRecvMsg]u.GenLen()=237
12:26:13.139185  [DEBUG   ][CLogServer::AddRecvMsg]u.GenLen()=236
12:26:13.139389  [DEBUG   ][CLogServer::AddRecvMsg]u.GenLen()=236
12:26:20.273886  [DEBUG   ][CLogServer::AddRecvMsg]u.GenLen()=236
12:26:20.274338  [DEBUG   ][CLogServer::AddRecvMsg]u.GenLen()=236
12:26:20.274379  [DEBUG   ][CLogServer::AddRecvMsg]u.GenLen()=236
12:26:20.574346  [DEBUG   ][CLogServer::AddRecvMsg]u.GenLen()=236
12:26:24.689317  [DEBUG   ][CLogServer::AddRecvMsg]u.GenLen()=237
12:27:25.768648  [DEBUG   ][CLogServer::AddRecvMsg]u.GenLen()=217
12:27:25.768694  [DEBUG   ][CLogServer::AddRecvMsg]u.GenLen()=238
12:27:25.768713  [DEBUG   ][CLogServer::AddRecvMsg]u.GenLen()=238
12:27:25.768731  [DEBUG   ][CLogServer::AddRecvMsg]u.GenLen()=238
12:30:07.023023  [DEBUG   ][CLogServer::AddRecvMsg]u.GenLen()=237
12:30:08.067352  [DEBUG   ][CLogServer::AddRecvMsg]u.GenLen()=101
12:30:33.496668  [DEBUG   ][CLogServer::AddRecvMsg]u.GenLen()=237
12:30:40.494100  [DEBUG   ][CLogServer::AddRecvMsg]u.GenLen()=236
12:30:40.593419  [DEBUG   ][CLogServer::AddRecvMsg]u.GenLen()=236
12:30:40.593711  [DEBUG   ][CLogServer::AddRecvMsg]u.GenLen()=236
12:30:42.198487  [DEBUG   ][CLogServer::AddRecvMsg]u.GenLen()=237
12:30:55.380721  [DEBUG   ][CLogServer::AddRecvMsg]u.GenLen()=236
12:30:55.380764  [DEBUG   ][CLogServer::AddRecvMsg]u.GenLen()=236
12:30:55.381029  [DEBUG   ][CLogServer::AddRecvMsg]u.GenLen()=236
12:30:57.191641  [DEBUG   ][CLogServer::AddRecvMsg]u.GenLen()=236
12:31:08.034177  [DEBUG   ][CLogServer::AddRecvMsg]u.GenLen()=237
12:31:49.720986  [DEBUG   ][CLogServer::AddRecvMsg]u.GenLen()=237
12:31:50.323160  [DEBUG   ][CLogServer::AddRecvMsg]u.GenLen()=237
12:31:52.755675  [DEBUG   ][CLogServer::AddRecvMsg]u.GenLen()=237
12:35:08.067332  [DEBUG   ][CLogServer::AddRecvMsg]u.GenLen()=101
12:36:32.068286  [DEBUG   ][CLogServer::AddRecvMsg]u.GenLen()=217
12:36:32.068333  [DEBUG   ][CLogServer::AddRecvMsg]u.GenLen()=238
12:39:20.889004  [DEBUG   ][CLogServer::AddRecvMsg]u.GenLen()=236
12:39:22.296687  [DEBUG   ][CLogServer::AddRecvMsg]u.GenLen()=237
12:39:23.099771  [DEBUG   ][CLogServer::AddRecvMsg]u.GenLen()=236
12:39:23.702725  [DEBUG   ][CLogServer::AddRecvMsg]u.GenLen()=236
12:39:23.702921  [DEBUG   ][CLogServer::AddRecvMsg]u.GenLen()=236
12:39:37.008483  [DEBUG   ][CLogServer::AddRecvMsg]u.GenLen()=237
12:39:37.412296  [DEBUG   ][CLogServer::AddRecvMsg]u.GenLen()=236
12:39:38.117684  [DEBUG   ][CLogServer::AddRecvMsg]u.GenLen()=236
12:40:08.067369  [DEBUG   ][CLogServer::AddRecvMsg]u.GenLen()=101
12:40:10.133407  [DEBUG   ][CLogServer::AddRecvMsg]u.GenLen()=237
12:40:51.208487  [DEBUG   ][CLogServer::AddRecvMsg]u.GenLen()=237
12:41:11.068178  [DEBUG   ][CLogServer::AddRecvMsg]u.GenLen()=238
12:41:11.069185  [DEBUG   ][CLogServer::AddRecvMsg]u.GenLen()=238
12:41:11.069224  [DEBUG   ][CLogServer::AddRecvMsg]u.GenLen()=217
12:41:11.069254  [DEBUG   ][CLogServer::AddRecvMsg]u.GenLen()=238
12:45:08.067228  [DEBUG   ][CLogServer::AddRecvMsg]u.GenLen()=101
12:47:15.726924  [DEBUG   ][CLogServer::AddRecvMsg]u.GenLen()=467
12:47:45.276805  [DEBUG   ][CLogServer::AddRecvMsg]u.GenLen()=381
12:47:45.276861  [DEBUG   ][CLogServer::AddRecvMsg]u.GenLen()=356
12:50:08.067305  [DEBUG   ][CLogServer::AddRecvMsg]u.GenLen()=101
12:53:37.322392  [DEBUG   ][CLogServer::AddRecvMsg]u.GenLen()=466
12:55:08.067250  [DEBUG   ][CLogServer::AddRecvMsg]u.GenLen()=101
13:00:08.067309  [DEBUG   ][CLogServer::AddRecvMsg]u.GenLen()=101
13:03:32.918438  [DEBUG   ][CLogServer::AddRecvMsg]u.GenLen()=381
13:03:32.918503  [DEBUG   ][CLogServer::AddRecvMsg]u.GenLen()=356
13:05:08.067453  [DEBUG   ][CLogServer::AddRecvMsg]u.GenLen()=101
13:10:08.067237  [DEBUG   ][CLogServer::AddRecvMsg]u.GenLen()=101
13:15:08.067430  [DEBUG   ][CLogServer::AddRecvMsg]u.GenLen()=101
13:20:08.067366  [DEBUG   ][CLogServer::AddRecvMsg]u.GenLen()=101
13:25:08.067265  [DEBUG   ][CLogServer::AddRecvMsg]u.GenLen()=101
13:30:08.067148  [DEBUG   ][CLogServer::AddRecvMsg]u.GenLen()=101
13:33:40.972934  [DEBUG   ][CLogServer::AddRecvMsg]u.GenLen()=239
13:34:58.097846  [DEBUG   ][CLogServer::AddRecvMsg]u.GenLen()=237
13:35:05.633468  [DEBUG   ][CLogServer::AddRecvMsg]u.GenLen()=237
13:35:08.067476  [DEBUG   ][CLogServer::AddRecvMsg]u.GenLen()=101
13:36:03.569622  [DEBUG   ][CLogServer::AddRecvMsg]u.GenLen()=237
13:36:04.272517  [DEBUG   ][CLogServer::AddRecvMsg]u.GenLen()=237
13:36:43.109538  [DEBUG   ][CLogServer::AddRecvMsg]u.GenLen()=236
13:36:43.110110  [DEBUG   ][CLogServer::AddRecvMsg]u.GenLen()=236
13:36:43.110144  [DEBUG   ][CLogServer::AddRecvMsg]u.GenLen()=236
13:36:43.110165  [DEBUG   ][CLogServer::AddRecvMsg]u.GenLen()=236
13:36:45.120154  [DEBUG   ][CLogServer::AddRecvMsg]u.GenLen()=237
13:37:13.094878  [DEBUG   ][CLogServer::AddRecvMsg]u.GenLen()=237
13:37:20.264344  [DEBUG   ][CLogServer::AddRecvMsg]u.GenLen()=236
13:37:20.362491  [DEBUG   ][CLogServer::AddRecvMsg]u.GenLen()=236
13:37:20.463627  [DEBUG   ][CLogServer::AddRecvMsg]u.GenLen()=236
13:40:08.067155  [DEBUG   ][CLogServer::AddRecvMsg]u.GenLen()=101
13:41:42.972561  [DEBUG   ][CLogServer::AddRecvMsg]u.GenLen()=467
13:42:31.568249  [DEBUG   ][CLogServer::AddRecvMsg]u.GenLen()=381
13:42:31.568296  [DEBUG   ][CLogServer::AddRecvMsg]u.GenLen()=356
13:43:46.624226  [DEBUG   ][CLogServer::AddRecvMsg]u.GenLen()=237
13:43:46.624275  [DEBUG   ][CLogServer::AddRecvMsg]u.GenLen()=237
13:43:46.624450  [DEBUG   ][CLogServer::AddRecvMsg]u.GenLen()=237
13:43:47.024466  [DEBUG   ][CLogServer::AddRecvMsg]u.GenLen()=236
13:43:47.024805  [DEBUG   ][CLogServer::AddRecvMsg]u.GenLen()=236
13:43:47.024840  [DEBUG   ][CLogServer::AddRecvMsg]u.GenLen()=236
13:43:47.125451  [DEBUG   ][CLogServer::AddRecvMsg]u.GenLen()=236
13:44:17.068176  [DEBUG   ][CLogServer::AddRecvMsg]u.GenLen()=236
13:44:24.630565  [DEBUG   ][CLogServer::AddRecvMsg]u.GenLen()=236
13:44:24.930946  [DEBUG   ][CLogServer::AddRecvMsg]u.GenLen()=236
13:44:24.931461  [DEBUG   ][CLogServer::AddRecvMsg]u.GenLen()=217
13:44:37.179167  [DEBUG   ][CLogServer::AddRecvMsg]u.GenLen()=217
13:44:37.279871  [DEBUG   ][CLogServer::AddRecvMsg]u.GenLen()=236
13:44:37.994946  [DEBUG   ][CLogServer::AddRecvMsg]u.GenLen()=236
13:45:08.067099  [DEBUG   ][CLogServer::AddRecvMsg]u.GenLen()=101
13:49:31.144013  [DEBUG   ][CLogServer::AddRecvMsg]u.GenLen()=217
13:49:31.144105  [DEBUG   ][CLogServer::AddRecvMsg]u.GenLen()=238
13:49:31.144188  [DEBUG   ][CLogServer::AddRecvMsg]u.GenLen()=240
13:50:08.067080  [DEBUG   ][CLogServer::AddRecvMsg]u.GenLen()=101
13:51:55.953658  [DEBUG   ][CLogServer::AddRecvMsg]u.GenLen()=239
13:52:00.091116  [DEBUG   ][CLogServer::AddRecvMsg]u.GenLen()=238
13:52:50.767775  [DEBUG   ][CLogServer::AddRecvMsg]u.GenLen()=218
13:52:50.767864  [DEBUG   ][CLogServer::AddRecvMsg]u.GenLen()=218
13:52:50.767897  [DEBUG   ][CLogServer::AddRecvMsg]u.GenLen()=218
13:52:50.767915  [DEBUG   ][CLogServer::AddRecvMsg]u.GenLen()=218
13:52:50.767931  [DEBUG   ][CLogServer::AddRecvMsg]u.GenLen()=218
13:52:50.767950  [DEBUG   ][CLogServer::AddRecvMsg]u.GenLen()=218
13:52:50.767967  [DEBUG   ][CLogServer::AddRecvMsg]u.GenLen()=218
13:52:50.767984  [DEBUG   ][CLogServer::AddRecvMsg]u.GenLen()=218
13:52:50.866280  [DEBUG   ][CLogServer::AddRecvMsg]u.GenLen()=218
13:52:50.866367  [DEBUG   ][CLogServer::AddRecvMsg]u.GenLen()=218
13:54:45.748067  [DEBUG   ][CLogServer::AddRecvMsg]u.GenLen()=466
13:55:08.067245  [DEBUG   ][CLogServer::AddRecvMsg]u.GenLen()=101
13:55:09.701040  [DEBUG   ][CLogServer::AddRecvMsg]u.GenLen()=380
13:55:09.701093  [DEBUG   ][CLogServer::AddRecvMsg]u.GenLen()=356
13:56:32.702277  [DEBUG   ][CLogServer::AddRecvMsg]u.GenLen()=237
13:56:34.118080  [DEBUG   ][CLogServer::AddRecvMsg]u.GenLen()=237
13:56:34.313548  [DEBUG   ][CLogServer::AddRecvMsg]u.GenLen()=237
13:57:04.075648  [DEBUG   ][CLogServer::AddRecvMsg]u.GenLen()=236
13:57:04.275250  [DEBUG   ][CLogServer::AddRecvMsg]u.GenLen()=236
13:57:36.332982  [DEBUG   ][CLogServer::AddRecvMsg]u.GenLen()=238
13:57:36.532157  [DEBUG   ][CLogServer::AddRecvMsg]u.GenLen()=217
13:57:36.633251  [DEBUG   ][CLogServer::AddRecvMsg]u.GenLen()=238
13:58:03.617550  [DEBUG   ][CLogServer::AddRecvMsg]u.GenLen()=238
13:58:55.374210  [DEBUG   ][CLogServer::AddRecvMsg]u.GenLen()=236
13:59:26.162100  [DEBUG   ][CLogServer::AddRecvMsg]u.GenLen()=237
13:59:31.894393  [DEBUG   ][CLogServer::AddRecvMsg]u.GenLen()=236
13:59:33.603477  [DEBUG   ][CLogServer::AddRecvMsg]u.GenLen()=236
14:00:08.067247  [DEBUG   ][CLogServer::AddRecvMsg]u.GenLen()=101
14:00:24.399777  [DEBUG   ][CLogServer::AddRecvMsg]u.GenLen()=237
14:02:08.408538  [DEBUG   ][CLogServer::AddRecvMsg]u.GenLen()=237
14:02:18.059125  [DEBUG   ][CLogServer::AddRecvMsg]u.GenLen()=236
14:02:18.059430  [DEBUG   ][CLogServer::AddRecvMsg]u.GenLen()=236
14:02:50.064134  [DEBUG   ][CLogServer::AddRecvMsg]u.GenLen()=237
14:03:27.506015  [DEBUG   ][CLogServer::AddRecvMsg]u.GenLen()=237
14:03:28.715393  [DEBUG   ][CLogServer::AddRecvMsg]u.GenLen()=237
14:03:41.494400  [DEBUG   ][CLogServer::AddRecvMsg]u.GenLen()=237
14:05:08.067143  [DEBUG   ][CLogServer::AddRecvMsg]u.GenLen()=101
14:06:35.141918  [DEBUG   ][CLogServer::AddRecvMsg]u.GenLen()=239
14:06:35.141968  [DEBUG   ][CLogServer::AddRecvMsg]u.GenLen()=218
14:06:35.141987  [DEBUG   ][CLogServer::AddRecvMsg]u.GenLen()=218
14:06:35.142005  [DEBUG   ][CLogServer::AddRecvMsg]u.GenLen()=220
14:06:53.130203  [DEBUG   ][CLogServer::AddRecvMsg]u.GenLen()=236
14:07:15.215376  [DEBUG   ][CLogServer::AddRecvMsg]u.GenLen()=236
14:07:15.215439  [DEBUG   ][CLogServer::AddRecvMsg]u.GenLen()=217
14:08:43.703151  [DEBUG   ][CLogServer::AddRecvMsg]u.GenLen()=237
14:09:15.700514  [DEBUG   ][CLogServer::AddRecvMsg]u.GenLen()=237
14:09:22.867082  [DEBUG   ][CLogServer::AddRecvMsg]u.GenLen()=237
14:10:08.067101  [DEBUG   ][CLogServer::AddRecvMsg]u.GenLen()=101
14:11:07.776504  [DEBUG   ][CLogServer::AddRecvMsg]u.GenLen()=238
14:11:07.776726  [DEBUG   ][CLogServer::AddRecvMsg]u.GenLen()=238
14:11:08.768209  [DEBUG   ][CLogServer::AddRecvMsg]u.GenLen()=217
14:11:08.768263  [DEBUG   ][CLogServer::AddRecvMsg]u.GenLen()=238
14:15:08.067146  [DEBUG   ][CLogServer::AddRecvMsg]u.GenLen()=101
14:16:10.338409  [DEBUG   ][CLogServer::AddRecvMsg]u.GenLen()=237
14:16:23.721440  [DEBUG   ][CLogServer::AddRecvMsg]u.GenLen()=237
14:16:49.899383  [DEBUG   ][CLogServer::AddRecvMsg]u.GenLen()=237
14:16:57.625969  [DEBUG   ][CLogServer::AddRecvMsg]u.GenLen()=237
14:18:29.580437  [DEBUG   ][CLogServer::AddRecvMsg]u.GenLen()=218
14:18:29.580491  [DEBUG   ][CLogServer::AddRecvMsg]u.GenLen()=236
14:18:29.580515  [DEBUG   ][CLogServer::AddRecvMsg]u.GenLen()=266
14:19:02.890264  [DEBUG   ][CLogServer::AddRecvMsg]u.GenLen()=218
14:19:02.890383  [DEBUG   ][CLogServer::AddRecvMsg]u.GenLen()=236
14:19:02.890418  [DEBUG   ][CLogServer::AddRecvMsg]u.GenLen()=266
14:19:06.304655  [DEBUG   ][CLogServer::AddRecvMsg]u.GenLen()=217
14:19:38.829864  [DEBUG   ][CLogServer::AddRecvMsg]u.GenLen()=239
14:20:08.067127  [DEBUG   ][CLogServer::AddRecvMsg]u.GenLen()=101
14:22:59.965885  [DEBUG   ][CLogServer::AddRecvMsg]u.GenLen()=236
14:23:00.065733  [DEBUG   ][CLogServer::AddRecvMsg]u.GenLen()=236
14:23:43.004806  [DEBUG   ][CLogServer::AddRecvMsg]u.GenLen()=237
14:23:52.991585  [DEBUG   ][CLogServer::AddRecvMsg]u.GenLen()=236
14:23:55.100613  [DEBUG   ][CLogServer::AddRecvMsg]u.GenLen()=236
14:24:24.772179  [DEBUG   ][CLogServer::AddRecvMsg]u.GenLen()=238
14:24:24.772949  [DEBUG   ][CLogServer::AddRecvMsg]u.GenLen()=238
14:24:24.772987  [DEBUG   ][CLogServer::AddRecvMsg]u.GenLen()=238
14:24:24.971892  [DEBUG   ][CLogServer::AddRecvMsg]u.GenLen()=217
14:24:54.508427  [DEBUG   ][CLogServer::AddRecvMsg]u.GenLen()=218
14:25:08.067232  [DEBUG   ][CLogServer::AddRecvMsg]u.GenLen()=101
14:29:15.084456  [DEBUG   ][CLogServer::AddRecvMsg]u.GenLen()=467
14:29:42.632532  [DEBUG   ][CLogServer::AddRecvMsg]u.GenLen()=381
14:29:42.632591  [DEBUG   ][CLogServer::AddRecvMsg]u.GenLen()=356
14:30:08.067427  [DEBUG   ][CLogServer::AddRecvMsg]u.GenLen()=101
14:30:42.632874  [DEBUG   ][CLogServer::AddRecvMsg]u.GenLen()=236
14:30:42.731608  [DEBUG   ][CLogServer::AddRecvMsg]u.GenLen()=236
14:30:42.731655  [DEBUG   ][CLogServer::AddRecvMsg]u.GenLen()=236
14:30:42.731947  [DEBUG   ][CLogServer::AddRecvMsg]u.GenLen()=236
14:30:55.702048  [DEBUG   ][CLogServer::AddRecvMsg]u.GenLen()=237
14:30:55.791317  [DEBUG   ][CLogServer::AddRecvMsg]u.GenLen()=237
14:30:56.108694  [DEBUG   ][CLogServer::AddRecvMsg]u.GenLen()=237
14:31:13.959618  [DEBUG   ][CLogServer::AddRecvMsg]u.GenLen()=237
14:31:14.662569  [DEBUG   ][CLogServer::AddRecvMsg]u.GenLen()=237
14:31:20.691028  [DEBUG   ][CLogServer::AddRecvMsg]u.GenLen()=237
14:31:29.252905  [DEBUG   ][CLogServer::AddRecvMsg]u.GenLen()=236
14:31:29.253323  [DEBUG   ][CLogServer::AddRecvMsg]u.GenLen()=236
14:31:29.253354  [DEBUG   ][CLogServer::AddRecvMsg]u.GenLen()=236
14:31:45.713556  [DEBUG   ][CLogServer::AddRecvMsg]u.GenLen()=236
14:31:45.713602  [DEBUG   ][CLogServer::AddRecvMsg]u.GenLen()=236
14:31:45.713620  [DEBUG   ][CLogServer::AddRecvMsg]u.GenLen()=236
14:31:45.713638  [DEBUG   ][CLogServer::AddRecvMsg]u.GenLen()=236
14:31:48.136636  [DEBUG   ][CLogServer::AddRecvMsg]u.GenLen()=236
14:31:49.531111  [DEBUG   ][CLogServer::AddRecvMsg]u.GenLen()=236
14:31:51.643489  [DEBUG   ][CLogServer::AddRecvMsg]u.GenLen()=236
14:32:09.225946  [DEBUG   ][CLogServer::AddRecvMsg]u.GenLen()=237
14:32:21.369540  [DEBUG   ][CLogServer::AddRecvMsg]u.GenLen()=237
14:32:32.511082  [DEBUG   ][CLogServer::AddRecvMsg]u.GenLen()=238
14:32:32.811612  [DEBUG   ][CLogServer::AddRecvMsg]u.GenLen()=217
14:32:32.811850  [DEBUG   ][CLogServer::AddRecvMsg]u.GenLen()=238
14:32:33.467634  [DEBUG   ][CLogServer::AddRecvMsg]u.GenLen()=238
14:34:31.345720  [DEBUG   ][CLogServer::AddRecvMsg]u.GenLen()=236
14:34:31.345817  [DEBUG   ][CLogServer::AddRecvMsg]u.GenLen()=217
14:34:36.771120  [DEBUG   ][CLogServer::AddRecvMsg]u.GenLen()=236
14:34:36.771172  [DEBUG   ][CLogServer::AddRecvMsg]u.GenLen()=217
14:34:40.373367  [DEBUG   ][CLogServer::AddRecvMsg]u.GenLen()=236
14:34:40.373422  [DEBUG   ][CLogServer::AddRecvMsg]u.GenLen()=217
14:34:44.696423  [DEBUG   ][CLogServer::AddRecvMsg]u.GenLen()=236
14:34:44.696553  [DEBUG   ][CLogServer::AddRecvMsg]u.GenLen()=217
14:34:44.696576  [DEBUG   ][CLogServer::AddRecvMsg]u.GenLen()=217
14:34:48.519580  [DEBUG   ][CLogServer::AddRecvMsg]u.GenLen()=237
14:34:48.519639  [DEBUG   ][CLogServer::AddRecvMsg]u.GenLen()=217
14:34:48.519660  [DEBUG   ][CLogServer::AddRecvMsg]u.GenLen()=217
14:34:52.428181  [DEBUG   ][CLogServer::AddRecvMsg]u.GenLen()=237
14:34:52.428228  [DEBUG   ][CLogServer::AddRecvMsg]u.GenLen()=217
14:34:52.428248  [DEBUG   ][CLogServer::AddRecvMsg]u.GenLen()=217
14:34:57.366880  [DEBUG   ][CLogServer::AddRecvMsg]u.GenLen()=237
14:34:57.366963  [DEBUG   ][CLogServer::AddRecvMsg]u.GenLen()=217
14:34:57.366983  [DEBUG   ][CLogServer::AddRecvMsg]u.GenLen()=217
14:35:00.680269  [DEBUG   ][CLogServer::AddRecvMsg]u.GenLen()=237
14:35:00.680330  [DEBUG   ][CLogServer::AddRecvMsg]u.GenLen()=217
14:35:00.680351  [DEBUG   ][CLogServer::AddRecvMsg]u.GenLen()=217
14:35:04.988529  [DEBUG   ][CLogServer::AddRecvMsg]u.GenLen()=237
14:35:04.988625  [DEBUG   ][CLogServer::AddRecvMsg]u.GenLen()=217
14:35:04.988649  [DEBUG   ][CLogServer::AddRecvMsg]u.GenLen()=217
14:35:08.067105  [DEBUG   ][CLogServer::AddRecvMsg]u.GenLen()=101
14:35:09.286168  [DEBUG   ][CLogServer::AddRecvMsg]u.GenLen()=237
14:35:09.286224  [DEBUG   ][CLogServer::AddRecvMsg]u.GenLen()=217
14:35:09.286264  [DEBUG   ][CLogServer::AddRecvMsg]u.GenLen()=217
14:35:13.624159  [DEBUG   ][CLogServer::AddRecvMsg]u.GenLen()=237
14:35:13.624215  [DEBUG   ][CLogServer::AddRecvMsg]u.GenLen()=218
14:35:13.624236  [DEBUG   ][CLogServer::AddRecvMsg]u.GenLen()=217
14:35:17.913768  [DEBUG   ][CLogServer::AddRecvMsg]u.GenLen()=237
14:35:17.913823  [DEBUG   ][CLogServer::AddRecvMsg]u.GenLen()=218
14:35:17.913854  [DEBUG   ][CLogServer::AddRecvMsg]u.GenLen()=217
14:35:21.558535  [DEBUG   ][CLogServer::AddRecvMsg]u.GenLen()=237
14:35:21.558583  [DEBUG   ][CLogServer::AddRecvMsg]u.GenLen()=218
14:35:21.558602  [DEBUG   ][CLogServer::AddRecvMsg]u.GenLen()=217
14:38:13.051582  [DEBUG   ][CLogServer::AddRecvMsg]u.GenLen()=217
14:38:13.051643  [DEBUG   ][CLogServer::AddRecvMsg]u.GenLen()=238
14:38:36.188033  [DEBUG   ][CLogServer::AddRecvMsg]u.GenLen()=218
14:38:36.188085  [DEBUG   ][CLogServer::AddRecvMsg]u.GenLen()=218
14:38:36.188104  [DEBUG   ][CLogServer::AddRecvMsg]u.GenLen()=218
14:38:36.188122  [DEBUG   ][CLogServer::AddRecvMsg]u.GenLen()=218
14:38:36.188139  [DEBUG   ][CLogServer::AddRecvMsg]u.GenLen()=218
14:38:36.188157  [DEBUG   ][CLogServer::AddRecvMsg]u.GenLen()=218
14:38:36.188175  [DEBUG   ][CLogServer::AddRecvMsg]u.GenLen()=218
14:38:36.188192  [DEBUG   ][CLogServer::AddRecvMsg]u.GenLen()=218
14:38:36.188209  [DEBUG   ][CLogServer::AddRecvMsg]u.GenLen()=218
14:38:36.188227  [DEBUG   ][CLogServer::AddRecvMsg]u.GenLen()=218
14:38:41.304496  [DEBUG   ][CLogServer::AddRecvMsg]u.GenLen()=218
14:38:41.304542  [DEBUG   ][CLogServer::AddRecvMsg]u.GenLen()=218
14:38:41.304571  [DEBUG   ][CLogServer::AddRecvMsg]u.GenLen()=218
14:40:06.713216  [DEBUG   ][CLogServer::AddRecvMsg]u.GenLen()=236
14:40:08.067327  [DEBUG   ][CLogServer::AddRecvMsg]u.GenLen()=101
14:40:10.032790  [DEBUG   ][CLogServer::AddRecvMsg]u.GenLen()=236
14:40:11.839491  [DEBUG   ][CLogServer::AddRecvMsg]u.GenLen()=236
14:40:14.447827  [DEBUG   ][CLogServer::AddRecvMsg]u.GenLen()=236
14:40:14.447886  [DEBUG   ][CLogServer::AddRecvMsg]u.GenLen()=236
14:40:16.258234  [DEBUG   ][CLogServer::AddRecvMsg]u.GenLen()=236
14:40:37.368143  [DEBUG   ][CLogServer::AddRecvMsg]u.GenLen()=236
14:40:37.368199  [DEBUG   ][CLogServer::AddRecvMsg]u.GenLen()=236
14:40:37.368378  [DEBUG   ][CLogServer::AddRecvMsg]u.GenLen()=236
14:40:59.304085  [DEBUG   ][CLogServer::AddRecvMsg]u.GenLen()=236
14:41:14.496663  [DEBUG   ][CLogServer::AddRecvMsg]u.GenLen()=236
14:41:14.496722  [DEBUG   ][CLogServer::AddRecvMsg]u.GenLen()=236
14:41:14.596780  [DEBUG   ][CLogServer::AddRecvMsg]u.GenLen()=217
14:41:15.802085  [DEBUG   ][CLogServer::AddRecvMsg]u.GenLen()=236
14:41:45.788339  [DEBUG   ][CLogServer::AddRecvMsg]u.GenLen()=236
14:41:45.887812  [DEBUG   ][CLogServer::AddRecvMsg]u.GenLen()=236
14:41:45.888123  [DEBUG   ][CLogServer::AddRecvMsg]u.GenLen()=236
14:42:21.356201  [DEBUG   ][CLogServer::AddRecvMsg]u.GenLen()=217
14:42:22.057599  [DEBUG   ][CLogServer::AddRecvMsg]u.GenLen()=236
14:42:22.359063  [DEBUG   ][CLogServer::AddRecvMsg]u.GenLen()=236
14:42:22.459135  [DEBUG   ][CLogServer::AddRecvMsg]u.GenLen()=236
14:42:22.562764  [DEBUG   ][CLogServer::AddRecvMsg]u.GenLen()=217
14:43:07.147488  [DEBUG   ][CLogServer::AddRecvMsg]u.GenLen()=236
14:43:07.147557  [DEBUG   ][CLogServer::AddRecvMsg]u.GenLen()=217
14:43:07.147592  [DEBUG   ][CLogServer::AddRecvMsg]u.GenLen()=236
14:43:09.624811  [DEBUG   ][CLogServer::AddRecvMsg]u.GenLen()=236
14:43:30.057057  [DEBUG   ][CLogServer::AddRecvMsg]u.GenLen()=236
14:43:30.160894  [DEBUG   ][CLogServer::AddRecvMsg]u.GenLen()=236
14:44:14.464358  [DEBUG   ][CLogServer::AddRecvMsg]u.GenLen()=236
14:44:48.468328  [DEBUG   ][CLogServer::AddRecvMsg]u.GenLen()=236
14:44:48.468935  [DEBUG   ][CLogServer::AddRecvMsg]u.GenLen()=236
14:44:48.468974  [DEBUG   ][CLogServer::AddRecvMsg]u.GenLen()=236
14:45:08.067064  [DEBUG   ][CLogServer::AddRecvMsg]u.GenLen()=101
14:46:01.683240  [DEBUG   ][CLogServer::AddRecvMsg]u.GenLen()=218
14:46:22.292853  [DEBUG   ][CLogServer::AddRecvMsg]u.GenLen()=236
14:46:22.293236  [DEBUG   ][CLogServer::AddRecvMsg]u.GenLen()=236
14:46:22.293264  [DEBUG   ][CLogServer::AddRecvMsg]u.GenLen()=236
14:47:07.976470  [DEBUG   ][CLogServer::AddRecvMsg]u.GenLen()=236
14:47:35.267850  [DEBUG   ][CLogServer::AddRecvMsg]u.GenLen()=236
14:47:35.268673  [DEBUG   ][CLogServer::AddRecvMsg]u.GenLen()=217
14:47:35.268711  [DEBUG   ][CLogServer::AddRecvMsg]u.GenLen()=236
14:47:35.268745  [DEBUG   ][CLogServer::AddRecvMsg]u.GenLen()=236
14:48:48.754212  [DEBUG   ][CLogServer::AddRecvMsg]u.GenLen()=236
14:48:49.858505  [DEBUG   ][CLogServer::AddRecvMsg]u.GenLen()=236
14:49:12.718499  [DEBUG   ][CLogServer::AddRecvMsg]u.GenLen()=236
14:49:52.225005  [DEBUG   ][CLogServer::AddRecvMsg]u.GenLen()=237
14:50:08.067230  [DEBUG   ][CLogServer::AddRecvMsg]u.GenLen()=101
14:50:36.893408  [DEBUG   ][CLogServer::AddRecvMsg]u.GenLen()=239
14:50:36.893496  [DEBUG   ][CLogServer::AddRecvMsg]u.GenLen()=218
14:50:36.893515  [DEBUG   ][CLogServer::AddRecvMsg]u.GenLen()=218
14:50:36.893535  [DEBUG   ][CLogServer::AddRecvMsg]u.GenLen()=220
14:51:08.059302  [DEBUG   ][CLogServer::AddRecvMsg]u.GenLen()=239
14:51:08.059342  [DEBUG   ][CLogServer::AddRecvMsg]u.GenLen()=240
14:51:25.644196  [DEBUG   ][CLogServer::AddRecvMsg]u.GenLen()=239
14:51:55.354648  [DEBUG   ][CLogServer::AddRecvMsg]u.GenLen()=239
14:52:07.688312  [DEBUG   ][CLogServer::AddRecvMsg]u.GenLen()=239
14:53:59.321093  [DEBUG   ][CLogServer::AddRecvMsg]u.GenLen()=236
14:53:59.424283  [DEBUG   ][CLogServer::AddRecvMsg]u.GenLen()=236
14:53:59.424650  [DEBUG   ][CLogServer::AddRecvMsg]u.GenLen()=236
14:53:59.424677  [DEBUG   ][CLogServer::AddRecvMsg]u.GenLen()=236
14:54:08.565095  [DEBUG   ][CLogServer::AddRecvMsg]u.GenLen()=237
14:54:14.248873  [DEBUG   ][CLogServer::AddRecvMsg]u.GenLen()=237
14:54:37.118614  [DEBUG   ][CLogServer::AddRecvMsg]u.GenLen()=237
14:54:39.537506  [DEBUG   ][CLogServer::AddRecvMsg]u.GenLen()=236
14:54:41.462735  [DEBUG   ][CLogServer::AddRecvMsg]u.GenLen()=236
14:54:49.379508  [DEBUG   ][CLogServer::AddRecvMsg]u.GenLen()=236
14:54:49.379925  [DEBUG   ][CLogServer::AddRecvMsg]u.GenLen()=236
14:54:49.379961  [DEBUG   ][CLogServer::AddRecvMsg]u.GenLen()=236
14:54:49.464032  [DEBUG   ][CLogServer::AddRecvMsg]u.GenLen()=236
14:54:50.271683  [DEBUG   ][CLogServer::AddRecvMsg]u.GenLen()=236
14:55:05.883522  [DEBUG   ][CLogServer::AddRecvMsg]u.GenLen()=237
14:55:08.067284  [DEBUG   ][CLogServer::AddRecvMsg]u.GenLen()=101
14:56:07.109650  [DEBUG   ][CLogServer::AddRecvMsg]u.GenLen()=237
14:56:07.614190  [DEBUG   ][CLogServer::AddRecvMsg]u.GenLen()=237
14:56:10.433477  [DEBUG   ][CLogServer::AddRecvMsg]u.GenLen()=237
14:56:24.283840  [DEBUG   ][CLogServer::AddRecvMsg]u.GenLen()=217
14:56:24.284713  [DEBUG   ][CLogServer::AddRecvMsg]u.GenLen()=238
14:56:24.284749  [DEBUG   ][CLogServer::AddRecvMsg]u.GenLen()=238
14:56:24.284780  [DEBUG   ][CLogServer::AddRecvMsg]u.GenLen()=238
14:57:14.365065  [DEBUG   ][CLogServer::AddRecvMsg]u.GenLen()=236
14:57:34.429574  [DEBUG   ][CLogServer::AddRecvMsg]u.GenLen()=236
14:57:34.429706  [DEBUG   ][CLogServer::AddRecvMsg]u.GenLen()=217
14:57:49.676406  [DEBUG   ][CLogServer::AddRecvMsg]u.GenLen()=236
14:57:49.676504  [DEBUG   ][CLogServer::AddRecvMsg]u.GenLen()=217
14:57:49.676525  [DEBUG   ][CLogServer::AddRecvMsg]u.GenLen()=217
14:58:32.799674  [DEBUG   ][CLogServer::AddRecvMsg]u.GenLen()=237
14:58:35.638060  [DEBUG   ][CLogServer::AddRecvMsg]u.GenLen()=237
14:58:37.960793  [DEBUG   ][CLogServer::AddRecvMsg]u.GenLen()=237
14:58:48.328507  [DEBUG   ][CLogServer::AddRecvMsg]u.GenLen()=236
14:58:50.444133  [DEBUG   ][CLogServer::AddRecvMsg]u.GenLen()=236
14:58:58.431385  [DEBUG   ][CLogServer::AddRecvMsg]u.GenLen()=237
14:59:03.244114  [DEBUG   ][CLogServer::AddRecvMsg]u.GenLen()=236
14:59:07.268371  [DEBUG   ][CLogServer::AddRecvMsg]u.GenLen()=236
14:59:07.364913  [DEBUG   ][CLogServer::AddRecvMsg]u.GenLen()=236
14:59:27.251592  [DEBUG   ][CLogServer::AddRecvMsg]u.GenLen()=236
14:59:33.572168  [DEBUG   ][CLogServer::AddRecvMsg]u.GenLen()=236
14:59:59.122800  [DEBUG   ][CLogServer::AddRecvMsg]u.GenLen()=236
14:59:59.331505  [DEBUG   ][CLogServer::AddRecvMsg]u.GenLen()=217
15:00:00.333573  [DEBUG   ][CLogServer::AddRecvMsg]u.GenLen()=236
15:00:00.434314  [DEBUG   ][CLogServer::AddRecvMsg]u.GenLen()=236
15:00:00.836564  [DEBUG   ][CLogServer::AddRecvMsg]u.GenLen()=236
15:00:00.836611  [DEBUG   ][CLogServer::AddRecvMsg]u.GenLen()=236
15:00:08.067275  [DEBUG   ][CLogServer::AddRecvMsg]u.GenLen()=101
15:00:21.814760  [DEBUG   ][CLogServer::AddRecvMsg]u.GenLen()=237
15:00:24.330165  [DEBUG   ][CLogServer::AddRecvMsg]u.GenLen()=236
15:00:24.527411  [DEBUG   ][CLogServer::AddRecvMsg]u.GenLen()=236
15:00:26.136274  [DEBUG   ][CLogServer::AddRecvMsg]u.GenLen()=237
15:00:30.359687  [DEBUG   ][CLogServer::AddRecvMsg]u.GenLen()=237
15:01:25.143136  [DEBUG   ][CLogServer::AddRecvMsg]u.GenLen()=237
15:01:26.861492  [DEBUG   ][CLogServer::AddRecvMsg]u.GenLen()=237
15:01:27.668742  [DEBUG   ][CLogServer::AddRecvMsg]u.GenLen()=237
15:01:33.383718  [DEBUG   ][CLogServer::AddRecvMsg]u.GenLen()=237
15:01:54.724836  [DEBUG   ][CLogServer::AddRecvMsg]u.GenLen()=238
15:01:56.433826  [DEBUG   ][CLogServer::AddRecvMsg]u.GenLen()=217
15:01:56.434052  [DEBUG   ][CLogServer::AddRecvMsg]u.GenLen()=238
15:01:56.534396  [DEBUG   ][CLogServer::AddRecvMsg]u.GenLen()=238
15:02:29.318637  [DEBUG   ][CLogServer::AddRecvMsg]u.GenLen()=218
15:02:29.318722  [DEBUG   ][CLogServer::AddRecvMsg]u.GenLen()=218
15:02:29.318741  [DEBUG   ][CLogServer::AddRecvMsg]u.GenLen()=218
15:02:29.318759  [DEBUG   ][CLogServer::AddRecvMsg]u.GenLen()=218
15:02:29.318777  [DEBUG   ][CLogServer::AddRecvMsg]u.GenLen()=218
15:02:29.318795  [DEBUG   ][CLogServer::AddRecvMsg]u.GenLen()=218
15:02:29.318812  [DEBUG   ][CLogServer::AddRecvMsg]u.GenLen()=218
15:02:29.318829  [DEBUG   ][CLogServer::AddRecvMsg]u.GenLen()=218
15:02:29.318846  [DEBUG   ][CLogServer::AddRecvMsg]u.GenLen()=218
15:02:40.969446  [DEBUG   ][CLogServer::AddRecvMsg]u.GenLen()=236
15:02:55.620909  [DEBUG   ][CLogServer::AddRecvMsg]u.GenLen()=237
15:02:55.620982  [DEBUG   ][CLogServer::AddRecvMsg]u.GenLen()=217
15:02:55.621041  [DEBUG   ][CLogServer::AddRecvMsg]u.GenLen()=217
15:03:02.941504  [DEBUG   ][CLogServer::AddRecvMsg]u.GenLen()=237
15:03:02.941563  [DEBUG   ][CLogServer::AddRecvMsg]u.GenLen()=218
15:03:02.941592  [DEBUG   ][CLogServer::AddRecvMsg]u.GenLen()=217
15:03:23.512780  [DEBUG   ][CLogServer::AddRecvMsg]u.GenLen()=239
15:04:28.918374  [DEBUG   ][CLogServer::AddRecvMsg]u.GenLen()=237
15:05:08.067129  [DEBUG   ][CLogServer::AddRecvMsg]u.GenLen()=101
15:05:14.083769  [DEBUG   ][CLogServer::AddRecvMsg]u.GenLen()=238
15:05:14.286142  [DEBUG   ][CLogServer::AddRecvMsg]u.GenLen()=217
15:05:15.968010  [DEBUG   ][CLogServer::AddRecvMsg]u.GenLen()=238
15:05:15.968373  [DEBUG   ][CLogServer::AddRecvMsg]u.GenLen()=238
15:05:15.968409  [DEBUG   ][CLogServer::AddRecvMsg]u.GenLen()=237
15:05:44.528360  [DEBUG   ][CLogServer::AddRecvMsg]u.GenLen()=236
15:06:54.622934  [DEBUG   ][CLogServer::AddRecvMsg]u.GenLen()=236
15:06:54.622980  [DEBUG   ][CLogServer::AddRecvMsg]u.GenLen()=236
15:06:57.140089  [DEBUG   ][CLogServer::AddRecvMsg]u.GenLen()=236
15:07:32.029674  [DEBUG   ][CLogServer::AddRecvMsg]u.GenLen()=237
15:07:55.344669  [DEBUG   ][CLogServer::AddRecvMsg]u.GenLen()=237
15:08:00.067947  [DEBUG   ][CLogServer::AddRecvMsg]u.GenLen()=237
15:08:19.687418  [DEBUG   ][CLogServer::AddRecvMsg]u.GenLen()=237
15:08:25.447872  [DEBUG   ][CLogServer::AddRecvMsg]u.GenLen()=237
15:08:26.950102  [DEBUG   ][CLogServer::AddRecvMsg]u.GenLen()=236
15:08:27.359848  [DEBUG   ][CLogServer::AddRecvMsg]u.GenLen()=237
15:08:52.781045  [DEBUG   ][CLogServer::AddRecvMsg]u.GenLen()=237
15:08:54.438768  [DEBUG   ][CLogServer::AddRecvMsg]u.GenLen()=237
15:09:26.567905  [DEBUG   ][CLogServer::AddRecvMsg]u.GenLen()=238
15:09:26.567953  [DEBUG   ][CLogServer::AddRecvMsg]u.GenLen()=238
15:09:26.568493  [DEBUG   ][CLogServer::AddRecvMsg]u.GenLen()=217
15:09:26.568523  [DEBUG   ][CLogServer::AddRecvMsg]u.GenLen()=238
15:10:08.067116  [DEBUG   ][CLogServer::AddRecvMsg]u.GenLen()=101
15:10:14.202728  [DEBUG   ][CLogServer::AddRecvMsg]u.GenLen()=238
15:10:31.173998  [DEBUG   ][CLogServer::AddRecvMsg]u.GenLen()=236
15:11:13.093695  [DEBUG   ][CLogServer::AddRecvMsg]u.GenLen()=237
15:12:03.656429  [DEBUG   ][CLogServer::AddRecvMsg]u.GenLen()=236
15:12:03.656488  [DEBUG   ][CLogServer::AddRecvMsg]u.GenLen()=236
15:12:05.361962  [DEBUG   ][CLogServer::AddRecvMsg]u.GenLen()=236
15:12:05.462260  [DEBUG   ][CLogServer::AddRecvMsg]u.GenLen()=236
15:12:05.564231  [DEBUG   ][CLogServer::AddRecvMsg]u.GenLen()=236
15:12:09.401145  [DEBUG   ][CLogServer::AddRecvMsg]u.GenLen()=237
15:12:11.207357  [DEBUG   ][CLogServer::AddRecvMsg]u.GenLen()=237
15:12:11.308802  [DEBUG   ][CLogServer::AddRecvMsg]u.GenLen()=236
15:12:11.409962  [DEBUG   ][CLogServer::AddRecvMsg]u.GenLen()=236
15:12:11.410167  [DEBUG   ][CLogServer::AddRecvMsg]u.GenLen()=237
15:12:12.413084  [DEBUG   ][CLogServer::AddRecvMsg]u.GenLen()=237
15:12:17.277266  [DEBUG   ][CLogServer::AddRecvMsg]u.GenLen()=236
15:12:17.277310  [DEBUG   ][CLogServer::AddRecvMsg]u.GenLen()=237
15:12:46.082125  [DEBUG   ][CLogServer::AddRecvMsg]u.GenLen()=237
15:12:56.006445  [DEBUG   ][CLogServer::AddRecvMsg]u.GenLen()=237
15:13:00.636367  [DEBUG   ][CLogServer::AddRecvMsg]u.GenLen()=236
15:13:00.735593  [DEBUG   ][CLogServer::AddRecvMsg]u.GenLen()=236
15:13:23.448889  [DEBUG   ][CLogServer::AddRecvMsg]u.GenLen()=237
15:13:23.449391  [DEBUG   ][CLogServer::AddRecvMsg]u.GenLen()=236
15:13:23.449423  [DEBUG   ][CLogServer::AddRecvMsg]u.GenLen()=236
15:13:24.893568  [DEBUG   ][CLogServer::AddRecvMsg]u.GenLen()=237
15:14:16.168433  [DEBUG   ][CLogServer::AddRecvMsg]u.GenLen()=238
15:14:16.168480  [DEBUG   ][CLogServer::AddRecvMsg]u.GenLen()=217
15:14:16.168988  [DEBUG   ][CLogServer::AddRecvMsg]u.GenLen()=238
15:14:16.169012  [DEBUG   ][CLogServer::AddRecvMsg]u.GenLen()=238
15:14:57.709867  [DEBUG   ][CLogServer::AddRecvMsg]u.GenLen()=236
15:15:08.067140  [DEBUG   ][CLogServer::AddRecvMsg]u.GenLen()=101
15:15:16.771517  [DEBUG   ][CLogServer::AddRecvMsg]u.GenLen()=240
15:15:16.771571  [DEBUG   ][CLogServer::AddRecvMsg]u.GenLen()=239
15:18:00.312003  [DEBUG   ][CLogServer::AddRecvMsg]u.GenLen()=237
15:18:30.568527  [DEBUG   ][CLogServer::AddRecvMsg]u.GenLen()=238
15:18:30.568571  [DEBUG   ][CLogServer::AddRecvMsg]u.GenLen()=217
15:18:30.568590  [DEBUG   ][CLogServer::AddRecvMsg]u.GenLen()=238
15:18:30.568618  [DEBUG   ][CLogServer::AddRecvMsg]u.GenLen()=238
15:20:08.067180  [DEBUG   ][CLogServer::AddRecvMsg]u.GenLen()=101
15:25:08.067151  [DEBUG   ][CLogServer::AddRecvMsg]u.GenLen()=101
15:26:32.121024  [DEBUG   ][CLogServer::AddRecvMsg]u.GenLen()=467
15:28:44.017254  [DEBUG   ][CLogServer::AddRecvMsg]u.GenLen()=381
15:28:44.017298  [DEBUG   ][CLogServer::AddRecvMsg]u.GenLen()=356
15:28:59.010323  [DEBUG   ][CLogServer::AddRecvMsg]u.GenLen()=239
15:30:08.067365  [DEBUG   ][CLogServer::AddRecvMsg]u.GenLen()=101
15:30:38.441329  [DEBUG   ][CLogServer::AddRecvMsg]u.GenLen()=239
15:30:38.441388  [DEBUG   ][CLogServer::AddRecvMsg]u.GenLen()=237
15:30:38.441417  [DEBUG   ][CLogServer::AddRecvMsg]u.GenLen()=219
15:30:38.441442  [DEBUG   ][CLogServer::AddRecvMsg]u.GenLen()=219
15:30:57.844235  [DEBUG   ][CLogServer::AddRecvMsg]u.GenLen()=238
15:31:00.140360  [DEBUG   ][CLogServer::AddRecvMsg]u.GenLen()=238
15:31:02.653632  [DEBUG   ][CLogServer::AddRecvMsg]u.GenLen()=238
15:31:24.849231  [DEBUG   ][CLogServer::AddRecvMsg]u.GenLen()=236
15:32:59.756332  [DEBUG   ][CLogServer::AddRecvMsg]u.GenLen()=237
15:33:13.624137  [DEBUG   ][CLogServer::AddRecvMsg]u.GenLen()=236
15:33:13.735125  [DEBUG   ][CLogServer::AddRecvMsg]u.GenLen()=236
15:33:15.232907  [DEBUG   ][CLogServer::AddRecvMsg]u.GenLen()=236
15:33:15.331893  [DEBUG   ][CLogServer::AddRecvMsg]u.GenLen()=236
15:33:15.433472  [DEBUG   ][CLogServer::AddRecvMsg]u.GenLen()=236
15:33:15.934190  [DEBUG   ][CLogServer::AddRecvMsg]u.GenLen()=237
15:33:15.934242  [DEBUG   ][CLogServer::AddRecvMsg]u.GenLen()=236
15:33:16.135863  [DEBUG   ][CLogServer::AddRecvMsg]u.GenLen()=236
15:33:16.336655  [DEBUG   ][CLogServer::AddRecvMsg]u.GenLen()=236
15:33:16.435610  [DEBUG   ][CLogServer::AddRecvMsg]u.GenLen()=236
15:33:17.641344  [DEBUG   ][CLogServer::AddRecvMsg]u.GenLen()=236
15:33:17.942599  [DEBUG   ][CLogServer::AddRecvMsg]u.GenLen()=236
15:33:31.820580  [DEBUG   ][CLogServer::AddRecvMsg]u.GenLen()=237
15:33:40.488986  [DEBUG   ][CLogServer::AddRecvMsg]u.GenLen()=237
15:33:59.789684  [DEBUG   ][CLogServer::AddRecvMsg]u.GenLen()=237
15:34:49.570165  [DEBUG   ][CLogServer::AddRecvMsg]u.GenLen()=237
15:35:08.067086  [DEBUG   ][CLogServer::AddRecvMsg]u.GenLen()=101
15:35:55.732256  [DEBUG   ][CLogServer::AddRecvMsg]u.GenLen()=218
15:36:02.360408  [DEBUG   ][CLogServer::AddRecvMsg]u.GenLen()=238
15:36:02.360629  [DEBUG   ][CLogServer::AddRecvMsg]u.GenLen()=238
15:36:02.860650  [DEBUG   ][CLogServer::AddRecvMsg]u.GenLen()=217
15:36:03.567706  [DEBUG   ][CLogServer::AddRecvMsg]u.GenLen()=238
15:40:08.067152  [DEBUG   ][CLogServer::AddRecvMsg]u.GenLen()=101
15:45:08.067199  [DEBUG   ][CLogServer::AddRecvMsg]u.GenLen()=101
15:50:08.068103  [DEBUG   ][CLogServer::AddRecvMsg]u.GenLen()=101
15:55:08.067110  [DEBUG   ][CLogServer::AddRecvMsg]u.GenLen()=101
16:00:08.067364  [DEBUG   ][CLogServer::AddRecvMsg]u.GenLen()=101
16:05:08.068085  [DEBUG   ][CLogServer::AddRecvMsg]u.GenLen()=101
16:10:08.067190  [DEBUG   ][CLogServer::AddRecvMsg]u.GenLen()=101
16:15:08.067234  [DEBUG   ][CLogServer::AddRecvMsg]u.GenLen()=101
16:20:08.067231  [DEBUG   ][CLogServer::AddRecvMsg]u.GenLen()=101
16:25:08.067270  [DEBUG   ][CLogServer::AddRecvMsg]u.GenLen()=101
16:30:08.067210  [DEBUG   ][CLogServer::AddRecvMsg]u.GenLen()=101
16:35:08.067132  [DEBUG   ][CLogServer::AddRecvMsg]u.GenLen()=101
16:40:08.067107  [DEBUG   ][CLogServer::AddRecvMsg]u.GenLen()=101
16:45:08.067301  [DEBUG   ][CLogServer::AddRecvMsg]u.GenLen()=101
16:50:08.067226  [DEBUG   ][CLogServer::AddRecvMsg]u.GenLen()=101
16:55:08.067313  [DEBUG   ][CLogServer::AddRecvMsg]u.GenLen()=101
17:00:08.067151  [DEBUG   ][CLogServer::AddRecvMsg]u.GenLen()=101
17:05:08.067246  [DEBUG   ][CLogServer::AddRecvMsg]u.GenLen()=101
17:10:08.067274  [DEBUG   ][CLogServer::AddRecvMsg]u.GenLen()=101
17:15:08.067289  [DEBUG   ][CLogServer::AddRecvMsg]u.GenLen()=101
17:20:08.067405  [DEBUG   ][CLogServer::AddRecvMsg]u.GenLen()=101
17:25:08.067243  [DEBUG   ][CLogServer::AddRecvMsg]u.GenLen()=101
17:30:08.067295  [DEBUG   ][CLogServer::AddRecvMsg]u.GenLen()=101
17:35:08.067266  [DEBUG   ][CLogServer::AddRecvMsg]u.GenLen()=101
17:40:08.067322  [DEBUG   ][CLogServer::AddRecvMsg]u.GenLen()=101
17:45:08.067210  [DEBUG   ][CLogServer::AddRecvMsg]u.GenLen()=101
17:50:08.067144  [DEBUG   ][CLogServer::AddRecvMsg]u.GenLen()=101
17:55:08.067119  [DEBUG   ][CLogServer::AddRecvMsg]u.GenLen()=101
18:00:08.067236  [DEBUG   ][CLogServer::AddRecvMsg]u.GenLen()=101
18:05:08.067285  [DEBUG   ][CLogServer::AddRecvMsg]u.GenLen()=101
18:10:08.067254  [DEBUG   ][CLogServer::AddRecvMsg]u.GenLen()=101
18:15:08.067171  [DEBUG   ][CLogServer::AddRecvMsg]u.GenLen()=101
18:20:08.067169  [DEBUG   ][CLogServer::AddRecvMsg]u.GenLen()=101
18:25:08.067192  [DEBUG   ][CLogServer::AddRecvMsg]u.GenLen()=101
18:30:08.067476  [DEBUG   ][CLogServer::AddRecvMsg]u.GenLen()=101
18:35:08.067272  [DEBUG   ][CLogServer::AddRecvMsg]u.GenLen()=101
18:40:08.067330  [DEBUG   ][CLogServer::AddRecvMsg]u.GenLen()=101
18:45:08.067277  [DEBUG   ][CLogServer::AddRecvMsg]u.GenLen()=101
18:50:08.067388  [DEBUG   ][CLogServer::AddRecvMsg]u.GenLen()=101
18:55:08.067101  [DEBUG   ][CLogServer::AddRecvMsg]u.GenLen()=101
19:00:08.067197  [DEBUG   ][CLogServer::AddRecvMsg]u.GenLen()=101
19:05:08.067150  [DEBUG   ][CLogServer::AddRecvMsg]u.GenLen()=101
19:10:08.067213  [DEBUG   ][CLogServer::AddRecvMsg]u.GenLen()=101
19:15:08.067329  [DEBUG   ][CLogServer::AddRecvMsg]u.GenLen()=101
19:20:08.067197  [DEBUG   ][CLogServer::AddRecvMsg]u.GenLen()=101
19:25:08.067385  [DEBUG   ][CLogServer::AddRecvMsg]u.GenLen()=101
19:30:08.067155  [DEBUG   ][CLogServer::AddRecvMsg]u.GenLen()=101
19:35:08.067282  [DEBUG   ][CLogServer::AddRecvMsg]u.GenLen()=101
19:40:08.067412  [DEBUG   ][CLogServer::AddRecvMsg]u.GenLen()=101
19:45:08.067426  [DEBUG   ][CLogServer::AddRecvMsg]u.GenLen()=101
19:50:08.067152  [DEBUG   ][CLogServer::AddRecvMsg]u.GenLen()=101
19:55:08.067305  [DEBUG   ][CLogServer::AddRecvMsg]u.GenLen()=101
20:00:08.067105  [DEBUG   ][CLogServer::AddRecvMsg]u.GenLen()=101
20:05:08.067272  [DEBUG   ][CLogServer::AddRecvMsg]u.GenLen()=101
20:10:08.067349  [DEBUG   ][CLogServer::AddRecvMsg]u.GenLen()=101
20:15:08.067278  [DEBUG   ][CLogServer::AddRecvMsg]u.GenLen()=101
20:20:08.067274  [DEBUG   ][CLogServer::AddRecvMsg]u.GenLen()=101
20:25:08.067281  [DEBUG   ][CLogServer::AddRecvMsg]u.GenLen()=101
20:30:08.067229  [DEBUG   ][CLogServer::AddRecvMsg]u.GenLen()=101
20:35:08.067277  [DEBUG   ][CLogServer::AddRecvMsg]u.GenLen()=101
20:40:08.067195  [DEBUG   ][CLogServer::AddRecvMsg]u.GenLen()=101
20:45:08.067433  [DEBUG   ][CLogServer::AddRecvMsg]u.GenLen()=101
20:50:08.067179  [DEBUG   ][CLogServer::AddRecvMsg]u.GenLen()=101
20:55:08.067181  [DEBUG   ][CLogServer::AddRecvMsg]u.GenLen()=101
21:00:08.067255  [DEBUG   ][CLogServer::AddRecvMsg]u.GenLen()=101
21:05:08.067176  [DEBUG   ][CLogServer::AddRecvMsg]u.GenLen()=101
21:10:08.067058  [DEBUG   ][CLogServer::AddRecvMsg]u.GenLen()=101
21:15:08.067287  [DEBUG   ][CLogServer::AddRecvMsg]u.GenLen()=101
21:20:08.067099  [DEBUG   ][CLogServer::AddRecvMsg]u.GenLen()=101
21:25:08.067127  [DEBUG   ][CLogServer::AddRecvMsg]u.GenLen()=101
21:30:08.067311  [DEBUG   ][CLogServer::AddRecvMsg]u.GenLen()=101
21:35:08.067162  [DEBUG   ][CLogServer::AddRecvMsg]u.GenLen()=101
21:40:08.067163  [DEBUG   ][CLogServer::AddRecvMsg]u.GenLen()=101
21:45:08.067181  [DEBUG   ][CLogServer::AddRecvMsg]u.GenLen()=101
21:50:08.067375  [DEBUG   ][CLogServer::AddRecvMsg]u.GenLen()=101
21:55:08.067287  [DEBUG   ][CLogServer::AddRecvMsg]u.GenLen()=101
22:00:08.067258  [DEBUG   ][CLogServer::AddRecvMsg]u.GenLen()=101
22:05:08.067145  [DEBUG   ][CLogServer::AddRecvMsg]u.GenLen()=101
22:10:08.067342  [DEBUG   ][CLogServer::AddRecvMsg]u.GenLen()=101
22:15:08.067162  [DEBUG   ][CLogServer::AddRecvMsg]u.GenLen()=101
22:20:08.067199  [DEBUG   ][CLogServer::AddRecvMsg]u.GenLen()=101
22:25:08.067142  [DEBUG   ][CLogServer::AddRecvMsg]u.GenLen()=101
22:30:08.067513  [DEBUG   ][CLogServer::AddRecvMsg]u.GenLen()=101
22:35:08.067159  [DEBUG   ][CLogServer::AddRecvMsg]u.GenLen()=101
22:40:08.067090  [DEBUG   ][CLogServer::AddRecvMsg]u.GenLen()=101
22:45:08.067419  [DEBUG   ][CLogServer::AddRecvMsg]u.GenLen()=101
22:50:08.067229  [DEBUG   ][CLogServer::AddRecvMsg]u.GenLen()=101
22:55:08.067108  [DEBUG   ][CLogServer::AddRecvMsg]u.GenLen()=101
23:00:08.067297  [DEBUG   ][CLogServer::AddRecvMsg]u.GenLen()=101
23:05:08.067237  [DEBUG   ][CLogServer::AddRecvMsg]u.GenLen()=101
23:10:08.067260  [DEBUG   ][CLogServer::AddRecvMsg]u.GenLen()=101
23:15:08.067220  [DEBUG   ][CLogServer::AddRecvMsg]u.GenLen()=101
23:20:08.067264  [DEBUG   ][CLogServer::AddRecvMsg]u.GenLen()=101
23:25:08.067137  [DEBUG   ][CLogServer::AddRecvMsg]u.GenLen()=101
23:30:08.067406  [DEBUG   ][CLogServer::AddRecvMsg]u.GenLen()=101
23:35:08.067098  [DEBUG   ][CLogServer::AddRecvMsg]u.GenLen()=101
23:40:08.067198  [DEBUG   ][CLogServer::AddRecvMsg]u.GenLen()=101
23:45:08.067097  [DEBUG   ][CLogServer::AddRecvMsg]u.GenLen()=101
23:50:08.067130  [DEBUG   ][CLogServer::AddRecvMsg]u.GenLen()=101
23:55:08.067303  [DEBUG   ][CLogServer::AddRecvMsg]u.GenLen()=101
