00:00:08.067121  [DEBUG   ][CLogServer::AddRecvMsg]u.GenLen()=101
00:05:08.067301  [DEBUG   ][CLogServer::AddRecvMsg]u.GenLen()=101
00:10:08.067185  [DEBUG   ][CLogServer::AddRecvMsg]u.GenLen()=101
00:15:08.067181  [DEBUG   ][CLogServer::AddRecvMsg]u.GenLen()=101
00:20:08.067201  [DEBUG   ][CLogServer::AddRecvMsg]u.GenLen()=101
00:25:08.067318  [DEBUG   ][CLogServer::AddRecvMsg]u.GenLen()=101
00:30:08.067273  [DEBUG   ][CLogServer::AddRecvMsg]u.GenLen()=101
00:35:08.067202  [DEBUG   ][CLogServer::AddRecvMsg]u.GenLen()=101
00:40:08.067192  [DEBUG   ][CLogServer::AddRecvMsg]u.GenLen()=101
00:45:08.067148  [DEBUG   ][CLogServer::AddRecvMsg]u.GenLen()=101
00:50:08.067411  [DEBUG   ][CLogServer::AddRecvMsg]u.GenLen()=101
00:55:08.067311  [DEBUG   ][CLogServer::AddRecvMsg]u.GenLen()=101
01:00:08.067207  [DEBUG   ][CLogServer::AddRecvMsg]u.GenLen()=101
01:05:08.067144  [DEBUG   ][CLogServer::AddRecvMsg]u.GenLen()=101
01:10:08.067207  [DEBUG   ][CLogServer::AddRecvMsg]u.GenLen()=101
01:15:08.067204  [DEBUG   ][CLogServer::AddRecvMsg]u.GenLen()=101
01:20:08.067184  [DEBUG   ][CLogServer::AddRecvMsg]u.GenLen()=101
01:25:08.067405  [DEBUG   ][CLogServer::AddRecvMsg]u.GenLen()=101
01:30:08.067271  [DEBUG   ][CLogServer::AddRecvMsg]u.GenLen()=101
01:35:08.067377  [DEBUG   ][CLogServer::AddRecvMsg]u.GenLen()=101
01:40:08.067164  [DEBUG   ][CLogServer::AddRecvMsg]u.GenLen()=101
01:45:08.067129  [DEBUG   ][CLogServer::AddRecvMsg]u.GenLen()=101
01:50:08.067313  [DEBUG   ][CLogServer::AddRecvMsg]u.GenLen()=101
01:55:08.067127  [DEBUG   ][CLogServer::AddRecvMsg]u.GenLen()=101
02:00:08.067339  [DEBUG   ][CLogServer::AddRecvMsg]u.GenLen()=101
02:05:08.067252  [DEBUG   ][CLogServer::AddRecvMsg]u.GenLen()=101
02:10:08.067256  [DEBUG   ][CLogServer::AddRecvMsg]u.GenLen()=101
02:15:08.067142  [DEBUG   ][CLogServer::AddRecvMsg]u.GenLen()=101
02:20:08.067317  [DEBUG   ][CLogServer::AddRecvMsg]u.GenLen()=101
02:25:08.067289  [DEBUG   ][CLogServer::AddRecvMsg]u.GenLen()=101
02:30:08.067359  [DEBUG   ][CLogServer::AddRecvMsg]u.GenLen()=101
02:35:08.067298  [DEBUG   ][CLogServer::AddRecvMsg]u.GenLen()=101
02:40:08.067302  [DEBUG   ][CLogServer::AddRecvMsg]u.GenLen()=101
02:45:08.067259  [DEBUG   ][CLogServer::AddRecvMsg]u.GenLen()=101
02:50:08.067093  [DEBUG   ][CLogServer::AddRecvMsg]u.GenLen()=101
02:55:08.067159  [DEBUG   ][CLogServer::AddRecvMsg]u.GenLen()=101
03:00:08.067332  [DEBUG   ][CLogServer::AddRecvMsg]u.GenLen()=101
03:05:08.067267  [DEBUG   ][CLogServer::AddRecvMsg]u.GenLen()=101
03:10:08.067204  [DEBUG   ][CLogServer::AddRecvMsg]u.GenLen()=101
03:15:08.067216  [DEBUG   ][CLogServer::AddRecvMsg]u.GenLen()=101
03:20:08.067095  [DEBUG   ][CLogServer::AddRecvMsg]u.GenLen()=101
03:25:08.067176  [DEBUG   ][CLogServer::AddRecvMsg]u.GenLen()=101
03:30:08.067111  [DEBUG   ][CLogServer::AddRecvMsg]u.GenLen()=101
03:35:08.067358  [DEBUG   ][CLogServer::AddRecvMsg]u.GenLen()=101
03:40:08.067280  [DEBUG   ][CLogServer::AddRecvMsg]u.GenLen()=101
03:45:08.067134  [DEBUG   ][CLogServer::AddRecvMsg]u.GenLen()=101
03:50:08.067267  [DEBUG   ][CLogServer::AddRecvMsg]u.GenLen()=101
03:55:08.067286  [DEBUG   ][CLogServer::AddRecvMsg]u.GenLen()=101
04:00:08.067253  [DEBUG   ][CLogServer::AddRecvMsg]u.GenLen()=101
04:05:08.067236  [DEBUG   ][CLogServer::AddRecvMsg]u.GenLen()=101
04:10:08.067184  [DEBUG   ][CLogServer::AddRecvMsg]u.GenLen()=101
04:15:08.067202  [DEBUG   ][CLogServer::AddRecvMsg]u.GenLen()=101
04:20:08.067121  [DEBUG   ][CLogServer::AddRecvMsg]u.GenLen()=101
04:25:08.067296  [DEBUG   ][CLogServer::AddRecvMsg]u.GenLen()=101
04:30:08.067208  [DEBUG   ][CLogServer::AddRecvMsg]u.GenLen()=101
04:35:08.067154  [DEBUG   ][CLogServer::AddRecvMsg]u.GenLen()=101
04:40:08.067166  [DEBUG   ][CLogServer::AddRecvMsg]u.GenLen()=101
04:45:08.067147  [DEBUG   ][CLogServer::AddRecvMsg]u.GenLen()=101
04:50:08.067167  [DEBUG   ][CLogServer::AddRecvMsg]u.GenLen()=101
04:55:08.067332  [DEBUG   ][CLogServer::AddRecvMsg]u.GenLen()=101
05:00:08.067129  [DEBUG   ][CLogServer::AddRecvMsg]u.GenLen()=101
05:05:08.067219  [DEBUG   ][CLogServer::AddRecvMsg]u.GenLen()=101
05:10:08.067341  [DEBUG   ][CLogServer::AddRecvMsg]u.GenLen()=101
05:15:08.067209  [DEBUG   ][CLogServer::AddRecvMsg]u.GenLen()=101
05:20:08.067175  [DEBUG   ][CLogServer::AddRecvMsg]u.GenLen()=101
05:25:08.067160  [DEBUG   ][CLogServer::AddRecvMsg]u.GenLen()=101
05:30:08.067241  [DEBUG   ][CLogServer::AddRecvMsg]u.GenLen()=101
05:35:08.067159  [DEBUG   ][CLogServer::AddRecvMsg]u.GenLen()=101
05:40:08.067276  [DEBUG   ][CLogServer::AddRecvMsg]u.GenLen()=101
05:45:08.067454  [DEBUG   ][CLogServer::AddRecvMsg]u.GenLen()=101
05:50:08.067148  [DEBUG   ][CLogServer::AddRecvMsg]u.GenLen()=101
05:55:08.067124  [DEBUG   ][CLogServer::AddRecvMsg]u.GenLen()=101
06:00:08.067173  [DEBUG   ][CLogServer::AddRecvMsg]u.GenLen()=101
06:05:08.067309  [DEBUG   ][CLogServer::AddRecvMsg]u.GenLen()=101
06:10:08.067358  [DEBUG   ][CLogServer::AddRecvMsg]u.GenLen()=101
06:15:08.067167  [DEBUG   ][CLogServer::AddRecvMsg]u.GenLen()=101
06:20:08.067180  [DEBUG   ][CLogServer::AddRecvMsg]u.GenLen()=101
06:25:08.067308  [DEBUG   ][CLogServer::AddRecvMsg]u.GenLen()=101
06:30:08.067298  [DEBUG   ][CLogServer::AddRecvMsg]u.GenLen()=101
06:35:08.067172  [DEBUG   ][CLogServer::AddRecvMsg]u.GenLen()=101
06:40:08.067158  [DEBUG   ][CLogServer::AddRecvMsg]u.GenLen()=101
06:45:08.067214  [DEBUG   ][CLogServer::AddRecvMsg]u.GenLen()=101
06:50:08.067252  [DEBUG   ][CLogServer::AddRecvMsg]u.GenLen()=101
06:55:08.067179  [DEBUG   ][CLogServer::AddRecvMsg]u.GenLen()=101
07:00:08.067258  [DEBUG   ][CLogServer::AddRecvMsg]u.GenLen()=101
07:05:08.067343  [DEBUG   ][CLogServer::AddRecvMsg]u.GenLen()=101
07:10:08.067269  [DEBUG   ][CLogServer::AddRecvMsg]u.GenLen()=101
07:15:08.067103  [DEBUG   ][CLogServer::AddRecvMsg]u.GenLen()=101
07:20:08.067492  [DEBUG   ][CLogServer::AddRecvMsg]u.GenLen()=101
07:25:08.067202  [DEBUG   ][CLogServer::AddRecvMsg]u.GenLen()=101
07:30:08.067205  [DEBUG   ][CLogServer::AddRecvMsg]u.GenLen()=101
07:35:08.067170  [DEBUG   ][CLogServer::AddRecvMsg]u.GenLen()=101
07:40:08.067233  [DEBUG   ][CLogServer::AddRecvMsg]u.GenLen()=101
07:45:08.067283  [DEBUG   ][CLogServer::AddRecvMsg]u.GenLen()=101
07:50:08.067094  [DEBUG   ][CLogServer::AddRecvMsg]u.GenLen()=101
07:55:08.067293  [DEBUG   ][CLogServer::AddRecvMsg]u.GenLen()=101
08:00:08.067329  [DEBUG   ][CLogServer::AddRecvMsg]u.GenLen()=101
08:05:08.067301  [DEBUG   ][CLogServer::AddRecvMsg]u.GenLen()=101
08:10:08.067169  [DEBUG   ][CLogServer::AddRecvMsg]u.GenLen()=101
08:15:08.067150  [DEBUG   ][CLogServer::AddRecvMsg]u.GenLen()=101
08:20:08.067109  [DEBUG   ][CLogServer::AddRecvMsg]u.GenLen()=101
08:25:08.067179  [DEBUG   ][CLogServer::AddRecvMsg]u.GenLen()=101
08:30:08.067251  [DEBUG   ][CLogServer::AddRecvMsg]u.GenLen()=101
08:35:08.067170  [DEBUG   ][CLogServer::AddRecvMsg]u.GenLen()=101
08:40:08.067260  [DEBUG   ][CLogServer::AddRecvMsg]u.GenLen()=101
08:45:08.067150  [DEBUG   ][CLogServer::AddRecvMsg]u.GenLen()=101
08:50:08.067186  [DEBUG   ][CLogServer::AddRecvMsg]u.GenLen()=101
08:55:08.067411  [DEBUG   ][CLogServer::AddRecvMsg]u.GenLen()=101
09:00:08.067156  [DEBUG   ][CLogServer::AddRecvMsg]u.GenLen()=101
09:05:08.067104  [DEBUG   ][CLogServer::AddRecvMsg]u.GenLen()=101
09:10:08.067146  [DEBUG   ][CLogServer::AddRecvMsg]u.GenLen()=101
09:15:08.067229  [DEBUG   ][CLogServer::AddRecvMsg]u.GenLen()=101
09:20:08.067168  [DEBUG   ][CLogServer::AddRecvMsg]u.GenLen()=101
09:25:08.067127  [DEBUG   ][CLogServer::AddRecvMsg]u.GenLen()=101
09:30:08.067335  [DEBUG   ][CLogServer::AddRecvMsg]u.GenLen()=101
09:35:08.067233  [DEBUG   ][CLogServer::AddRecvMsg]u.GenLen()=101
09:40:08.067392  [DEBUG   ][CLogServer::AddRecvMsg]u.GenLen()=101
09:45:08.067186  [DEBUG   ][CLogServer::AddRecvMsg]u.GenLen()=101
09:50:08.067161  [DEBUG   ][CLogServer::AddRecvMsg]u.GenLen()=101
09:55:08.067110  [DEBUG   ][CLogServer::AddRecvMsg]u.GenLen()=101
10:00:08.067278  [DEBUG   ][CLogServer::AddRecvMsg]u.GenLen()=101
10:05:08.067124  [DEBUG   ][CLogServer::AddRecvMsg]u.GenLen()=101
10:10:08.067114  [DEBUG   ][CLogServer::AddRecvMsg]u.GenLen()=101
10:15:08.067245  [DEBUG   ][CLogServer::AddRecvMsg]u.GenLen()=101
10:20:08.067168  [DEBUG   ][CLogServer::AddRecvMsg]u.GenLen()=101
10:25:08.067197  [DEBUG   ][CLogServer::AddRecvMsg]u.GenLen()=101
10:30:08.067138  [DEBUG   ][CLogServer::AddRecvMsg]u.GenLen()=101
10:35:08.067234  [DEBUG   ][CLogServer::AddRecvMsg]u.GenLen()=101
10:40:08.067272  [DEBUG   ][CLogServer::AddRecvMsg]u.GenLen()=101
10:45:08.067152  [DEBUG   ][CLogServer::AddRecvMsg]u.GenLen()=101
10:50:08.067178  [DEBUG   ][CLogServer::AddRecvMsg]u.GenLen()=101
10:55:08.067169  [DEBUG   ][CLogServer::AddRecvMsg]u.GenLen()=101
11:00:08.067323  [DEBUG   ][CLogServer::AddRecvMsg]u.GenLen()=101
11:05:08.067204  [DEBUG   ][CLogServer::AddRecvMsg]u.GenLen()=101
11:10:08.067277  [DEBUG   ][CLogServer::AddRecvMsg]u.GenLen()=101
11:15:08.067160  [DEBUG   ][CLogServer::AddRecvMsg]u.GenLen()=101
11:20:08.067149  [DEBUG   ][CLogServer::AddRecvMsg]u.GenLen()=101
11:25:08.067196  [DEBUG   ][CLogServer::AddRecvMsg]u.GenLen()=101
11:30:08.067195  [DEBUG   ][CLogServer::AddRecvMsg]u.GenLen()=101
11:35:08.067154  [DEBUG   ][CLogServer::AddRecvMsg]u.GenLen()=101
11:40:08.067292  [DEBUG   ][CLogServer::AddRecvMsg]u.GenLen()=101
11:45:08.067422  [DEBUG   ][CLogServer::AddRecvMsg]u.GenLen()=101
11:50:08.067125  [DEBUG   ][CLogServer::AddRecvMsg]u.GenLen()=101
11:55:08.067094  [DEBUG   ][CLogServer::AddRecvMsg]u.GenLen()=101
12:00:08.067130  [DEBUG   ][CLogServer::AddRecvMsg]u.GenLen()=101
12:05:08.067188  [DEBUG   ][CLogServer::AddRecvMsg]u.GenLen()=101
12:10:08.067563  [DEBUG   ][CLogServer::AddRecvMsg]u.GenLen()=101
12:15:08.067531  [DEBUG   ][CLogServer::AddRecvMsg]u.GenLen()=101
12:20:08.067135  [DEBUG   ][CLogServer::AddRecvMsg]u.GenLen()=101
12:25:08.067085  [DEBUG   ][CLogServer::AddRecvMsg]u.GenLen()=101
12:30:08.067115  [DEBUG   ][CLogServer::AddRecvMsg]u.GenLen()=101
12:35:08.067075  [DEBUG   ][CLogServer::AddRecvMsg]u.GenLen()=101
12:40:08.067364  [DEBUG   ][CLogServer::AddRecvMsg]u.GenLen()=101
12:45:08.067224  [DEBUG   ][CLogServer::AddRecvMsg]u.GenLen()=101
12:50:08.067116  [DEBUG   ][CLogServer::AddRecvMsg]u.GenLen()=101
12:55:08.067122  [DEBUG   ][CLogServer::AddRecvMsg]u.GenLen()=101
13:00:08.067277  [DEBUG   ][CLogServer::AddRecvMsg]u.GenLen()=101
13:05:08.067229  [DEBUG   ][CLogServer::AddRecvMsg]u.GenLen()=101
13:10:08.067189  [DEBUG   ][CLogServer::AddRecvMsg]u.GenLen()=101
13:15:08.067426  [DEBUG   ][CLogServer::AddRecvMsg]u.GenLen()=101
13:20:08.067393  [DEBUG   ][CLogServer::AddRecvMsg]u.GenLen()=101
13:25:08.067156  [DEBUG   ][CLogServer::AddRecvMsg]u.GenLen()=101
13:30:08.067289  [DEBUG   ][CLogServer::AddRecvMsg]u.GenLen()=101
13:35:08.067180  [DEBUG   ][CLogServer::AddRecvMsg]u.GenLen()=101
13:40:08.067315  [DEBUG   ][CLogServer::AddRecvMsg]u.GenLen()=101
13:45:08.067287  [DEBUG   ][CLogServer::AddRecvMsg]u.GenLen()=101
13:50:08.067309  [DEBUG   ][CLogServer::AddRecvMsg]u.GenLen()=101
13:55:08.067308  [DEBUG   ][CLogServer::AddRecvMsg]u.GenLen()=101
14:00:08.067218  [DEBUG   ][CLogServer::AddRecvMsg]u.GenLen()=101
14:05:08.067144  [DEBUG   ][CLogServer::AddRecvMsg]u.GenLen()=101
14:10:08.067104  [DEBUG   ][CLogServer::AddRecvMsg]u.GenLen()=101
14:15:08.067182  [DEBUG   ][CLogServer::AddRecvMsg]u.GenLen()=101
14:20:08.067287  [DEBUG   ][CLogServer::AddRecvMsg]u.GenLen()=101
14:25:08.067179  [DEBUG   ][CLogServer::AddRecvMsg]u.GenLen()=101
14:30:08.067175  [DEBUG   ][CLogServer::AddRecvMsg]u.GenLen()=101
14:35:08.067236  [DEBUG   ][CLogServer::AddRecvMsg]u.GenLen()=101
14:40:08.067462  [DEBUG   ][CLogServer::AddRecvMsg]u.GenLen()=101
14:45:08.067286  [DEBUG   ][CLogServer::AddRecvMsg]u.GenLen()=101
14:50:08.067286  [DEBUG   ][CLogServer::AddRecvMsg]u.GenLen()=101
14:55:08.067126  [DEBUG   ][CLogServer::AddRecvMsg]u.GenLen()=101
15:00:08.067620  [DEBUG   ][CLogServer::AddRecvMsg]u.GenLen()=101
15:05:08.069893  [DEBUG   ][CLogServer::AddRecvMsg]u.GenLen()=101
15:10:08.067324  [DEBUG   ][CLogServer::AddRecvMsg]u.GenLen()=101
15:15:08.067241  [DEBUG   ][CLogServer::AddRecvMsg]u.GenLen()=101
15:20:08.067192  [DEBUG   ][CLogServer::AddRecvMsg]u.GenLen()=101
15:25:08.067094  [DEBUG   ][CLogServer::AddRecvMsg]u.GenLen()=101
15:30:08.067309  [DEBUG   ][CLogServer::AddRecvMsg]u.GenLen()=101
15:35:08.067260  [DEBUG   ][CLogServer::AddRecvMsg]u.GenLen()=101
15:40:08.067301  [DEBUG   ][CLogServer::AddRecvMsg]u.GenLen()=101
15:45:08.068137  [DEBUG   ][CLogServer::AddRecvMsg]u.GenLen()=101
15:50:08.068332  [DEBUG   ][CLogServer::AddRecvMsg]u.GenLen()=101
15:55:08.068256  [DEBUG   ][CLogServer::AddRecvMsg]u.GenLen()=101
16:00:08.067280  [DEBUG   ][CLogServer::AddRecvMsg]u.GenLen()=101
16:05:08.067181  [DEBUG   ][CLogServer::AddRecvMsg]u.GenLen()=101
16:10:08.067261  [DEBUG   ][CLogServer::AddRecvMsg]u.GenLen()=101
16:15:08.067274  [DEBUG   ][CLogServer::AddRecvMsg]u.GenLen()=101
16:20:08.067392  [DEBUG   ][CLogServer::AddRecvMsg]u.GenLen()=101
16:25:08.067193  [DEBUG   ][CLogServer::AddRecvMsg]u.GenLen()=101
16:30:08.067380  [DEBUG   ][CLogServer::AddRecvMsg]u.GenLen()=101
16:35:08.067255  [DEBUG   ][CLogServer::AddRecvMsg]u.GenLen()=101
16:40:08.067092  [DEBUG   ][CLogServer::AddRecvMsg]u.GenLen()=101
16:45:08.067130  [DEBUG   ][CLogServer::AddRecvMsg]u.GenLen()=101
16:50:08.067384  [DEBUG   ][CLogServer::AddRecvMsg]u.GenLen()=101
16:55:08.067364  [DEBUG   ][CLogServer::AddRecvMsg]u.GenLen()=101
17:00:08.067469  [DEBUG   ][CLogServer::AddRecvMsg]u.GenLen()=101
17:05:08.067405  [DEBUG   ][CLogServer::AddRecvMsg]u.GenLen()=101
17:10:08.067255  [DEBUG   ][CLogServer::AddRecvMsg]u.GenLen()=101
17:15:08.067276  [DEBUG   ][CLogServer::AddRecvMsg]u.GenLen()=101
17:20:08.067096  [DEBUG   ][CLogServer::AddRecvMsg]u.GenLen()=101
17:25:08.067097  [DEBUG   ][CLogServer::AddRecvMsg]u.GenLen()=101
17:30:08.067182  [DEBUG   ][CLogServer::AddRecvMsg]u.GenLen()=101
17:35:08.067223  [DEBUG   ][CLogServer::AddRecvMsg]u.GenLen()=101
17:40:08.067251  [DEBUG   ][CLogServer::AddRecvMsg]u.GenLen()=101
17:45:08.067288  [DEBUG   ][CLogServer::AddRecvMsg]u.GenLen()=101
17:50:08.067167  [DEBUG   ][CLogServer::AddRecvMsg]u.GenLen()=101
17:55:08.067187  [DEBUG   ][CLogServer::AddRecvMsg]u.GenLen()=101
18:00:08.067335  [DEBUG   ][CLogServer::AddRecvMsg]u.GenLen()=101
18:05:08.067240  [DEBUG   ][CLogServer::AddRecvMsg]u.GenLen()=101
18:10:08.067662  [DEBUG   ][CLogServer::AddRecvMsg]u.GenLen()=101
18:15:08.067128  [DEBUG   ][CLogServer::AddRecvMsg]u.GenLen()=101
18:20:08.067108  [DEBUG   ][CLogServer::AddRecvMsg]u.GenLen()=101
18:25:08.067075  [DEBUG   ][CLogServer::AddRecvMsg]u.GenLen()=101
18:30:08.067205  [DEBUG   ][CLogServer::AddRecvMsg]u.GenLen()=101
18:35:08.067116  [DEBUG   ][CLogServer::AddRecvMsg]u.GenLen()=101
18:40:08.067150  [DEBUG   ][CLogServer::AddRecvMsg]u.GenLen()=101
18:45:08.067257  [DEBUG   ][CLogServer::AddRecvMsg]u.GenLen()=101
18:50:08.067273  [DEBUG   ][CLogServer::AddRecvMsg]u.GenLen()=101
18:55:08.067179  [DEBUG   ][CLogServer::AddRecvMsg]u.GenLen()=101
19:00:08.067141  [DEBUG   ][CLogServer::AddRecvMsg]u.GenLen()=101
19:05:08.067158  [DEBUG   ][CLogServer::AddRecvMsg]u.GenLen()=101
19:10:08.067468  [DEBUG   ][CLogServer::AddRecvMsg]u.GenLen()=101
19:15:08.067122  [DEBUG   ][CLogServer::AddRecvMsg]u.GenLen()=101
19:20:08.067153  [DEBUG   ][CLogServer::AddRecvMsg]u.GenLen()=101
19:25:08.067267  [DEBUG   ][CLogServer::AddRecvMsg]u.GenLen()=101
19:30:08.067101  [DEBUG   ][CLogServer::AddRecvMsg]u.GenLen()=101
19:35:08.067117  [DEBUG   ][CLogServer::AddRecvMsg]u.GenLen()=101
19:40:08.067134  [DEBUG   ][CLogServer::AddRecvMsg]u.GenLen()=101
19:45:08.067149  [DEBUG   ][CLogServer::AddRecvMsg]u.GenLen()=101
19:50:08.067263  [DEBUG   ][CLogServer::AddRecvMsg]u.GenLen()=101
19:55:08.067302  [DEBUG   ][CLogServer::AddRecvMsg]u.GenLen()=101
20:00:08.067131  [DEBUG   ][CLogServer::AddRecvMsg]u.GenLen()=101
20:05:08.067182  [DEBUG   ][CLogServer::AddRecvMsg]u.GenLen()=101
20:10:08.067152  [DEBUG   ][CLogServer::AddRecvMsg]u.GenLen()=101
20:15:08.067096  [DEBUG   ][CLogServer::AddRecvMsg]u.GenLen()=101
20:20:08.067152  [DEBUG   ][CLogServer::AddRecvMsg]u.GenLen()=101
20:25:08.067241  [DEBUG   ][CLogServer::AddRecvMsg]u.GenLen()=101
20:30:08.067180  [DEBUG   ][CLogServer::AddRecvMsg]u.GenLen()=101
20:35:08.067207  [DEBUG   ][CLogServer::AddRecvMsg]u.GenLen()=101
20:40:08.067229  [DEBUG   ][CLogServer::AddRecvMsg]u.GenLen()=101
20:45:08.067104  [DEBUG   ][CLogServer::AddRecvMsg]u.GenLen()=101
20:50:08.067176  [DEBUG   ][CLogServer::AddRecvMsg]u.GenLen()=101
20:55:08.067310  [DEBUG   ][CLogServer::AddRecvMsg]u.GenLen()=101
21:00:08.067276  [DEBUG   ][CLogServer::AddRecvMsg]u.GenLen()=101
21:05:08.067114  [DEBUG   ][CLogServer::AddRecvMsg]u.GenLen()=101
21:10:08.067443  [DEBUG   ][CLogServer::AddRecvMsg]u.GenLen()=101
21:15:08.067117  [DEBUG   ][CLogServer::AddRecvMsg]u.GenLen()=101
21:20:08.067283  [DEBUG   ][CLogServer::AddRecvMsg]u.GenLen()=101
21:25:08.067039  [DEBUG   ][CLogServer::AddRecvMsg]u.GenLen()=101
21:30:08.067160  [DEBUG   ][CLogServer::AddRecvMsg]u.GenLen()=101
21:35:08.067295  [DEBUG   ][CLogServer::AddRecvMsg]u.GenLen()=101
21:40:08.067107  [DEBUG   ][CLogServer::AddRecvMsg]u.GenLen()=101
21:45:08.067298  [DEBUG   ][CLogServer::AddRecvMsg]u.GenLen()=101
21:50:08.067399  [DEBUG   ][CLogServer::AddRecvMsg]u.GenLen()=101
21:55:08.067258  [DEBUG   ][CLogServer::AddRecvMsg]u.GenLen()=101
22:00:08.067116  [DEBUG   ][CLogServer::AddRecvMsg]u.GenLen()=101
22:05:08.067345  [DEBUG   ][CLogServer::AddRecvMsg]u.GenLen()=101
22:10:08.067094  [DEBUG   ][CLogServer::AddRecvMsg]u.GenLen()=101
22:15:08.067163  [DEBUG   ][CLogServer::AddRecvMsg]u.GenLen()=101
22:20:08.067174  [DEBUG   ][CLogServer::AddRecvMsg]u.GenLen()=101
22:25:08.067162  [DEBUG   ][CLogServer::AddRecvMsg]u.GenLen()=101
22:30:08.067115  [DEBUG   ][CLogServer::AddRecvMsg]u.GenLen()=101
22:35:08.067084  [DEBUG   ][CLogServer::AddRecvMsg]u.GenLen()=101
22:40:08.067332  [DEBUG   ][CLogServer::AddRecvMsg]u.GenLen()=101
22:45:08.067204  [DEBUG   ][CLogServer::AddRecvMsg]u.GenLen()=101
22:50:08.067163  [DEBUG   ][CLogServer::AddRecvMsg]u.GenLen()=101
22:55:08.067131  [DEBUG   ][CLogServer::AddRecvMsg]u.GenLen()=101
23:00:08.067135  [DEBUG   ][CLogServer::AddRecvMsg]u.GenLen()=101
23:05:08.067125  [DEBUG   ][CLogServer::AddRecvMsg]u.GenLen()=101
23:10:08.067114  [DEBUG   ][CLogServer::AddRecvMsg]u.GenLen()=101
23:15:08.067253  [DEBUG   ][CLogServer::AddRecvMsg]u.GenLen()=101
23:20:08.067150  [DEBUG   ][CLogServer::AddRecvMsg]u.GenLen()=101
23:25:08.067081  [DEBUG   ][CLogServer::AddRecvMsg]u.GenLen()=101
23:30:08.067177  [DEBUG   ][CLogServer::AddRecvMsg]u.GenLen()=101
23:35:08.067140  [DEBUG   ][CLogServer::AddRecvMsg]u.GenLen()=101
23:40:08.067470  [DEBUG   ][CLogServer::AddRecvMsg]u.GenLen()=101
23:45:08.067122  [DEBUG   ][CLogServer::AddRecvMsg]u.GenLen()=101
23:50:08.067114  [DEBUG   ][CLogServer::AddRecvMsg]u.GenLen()=101
23:55:08.067120  [DEBUG   ][CLogServer::AddRecvMsg]u.GenLen()=101
