12:50:02.493034  [WARNING ][init_cfg]warning:missed section:server_8
12:50:02.493267  [WARNING ][init_cfg]warning:missed section:server_9
12:50:02.493307  [WARNING ][init_cfg]warning:missed section:server_10
12:50:02.493339  [WARNING ][init_cfg]warning:missed section:server_11
12:50:02.493370  [WARNING ][init_cfg]warning:missed section:server_12
12:50:02.493401  [WARNING ][init_cfg]warning:missed section:server_13
12:50:02.493430  [WARNING ][init_cfg]warning:missed section:server_14
12:50:02.493460  [WARNING ][init_cfg]warning:missed section:server_15
12:50:02.493491  [WARNING ][init_cfg]warning:missed section:server_16
12:50:02.493525  [WARNING ][init_cfg]warning:missed section:server_17
12:50:02.493559  [WARNING ][init_cfg]warning:missed section:server_18
12:50:02.493595  [WARNING ][init_cfg]warning:missed section:server_19
12:50:02.493629  [WARNING ][init_cfg]warning:missed section:server_20
12:50:02.493664  [WARNING ][init_cfg]warning:missed section:server_21
12:50:02.493701  [WARNING ][init_cfg]warning:missed section:server_22
12:50:02.493735  [WARNING ][init_cfg]warning:missed section:server_23
12:50:02.493775  [WARNING ][init_cfg]warning:missed section:server_24
12:50:02.493818  [WARNING ][init_cfg]warning:missed section:server_25
12:50:02.493857  [WARNING ][init_cfg]warning:missed section:server_26
12:50:02.500851  [WARNING ][init_cfg]warning:missed section:server_27
12:50:02.500877  [WARNING ][init_cfg]warning:missed section:server_28
12:50:02.500901  [WARNING ][init_cfg]warning:missed section:server_29
12:50:02.501135  [DEBUG   ][CDefParser::init]==========
12:50:02.566433  [DEBUG   ][CDefParser::init]m_EntityDefMd5 = e5a2d6e9b88cff1622d5b58a25f71496
12:50:02.566569  [INFO    ][world::initNextEntityId]init_id=67108864
12:50:02.566685  [DEBUG   ][CEpollServer::AddFdAndMb]serverName=
12:50:02.566728  [DEBUG   ][CEpollServer::addFdAndMb]fd=4;fd_type=1;addr=;port=8004;authz=0
12:50:02.566753  [DEBUG   ][start_server]:8004,success.
12:50:02.566889  [DEBUG   ][CEpollServer::addFdAndMb]fd=6;fd_type=2;addr=127.0.0.1;port=8001;authz=0
12:50:02.566918  [DEBUG   ][try_to_connect_mailbox]server=127.0.0.1;port=8001
12:50:02.573916  [DEBUG   ][CEpollServer::addFdAndMb]fd=7;fd_type=2;addr=127.0.0.1;port=8002;authz=0
12:50:02.573970  [DEBUG   ][try_to_connect_mailbox]server=127.0.0.1;port=8002
12:50:02.574123  [DEBUG   ][CEpollServer::addFdAndMb]fd=8;fd_type=2;addr=127.0.0.1;port=8003;authz=0
12:50:02.574152  [DEBUG   ][try_to_connect_mailbox]server=127.0.0.1;port=8003
12:50:02.574243  [DEBUG   ][CEpollServer::addFdAndMb]fd=9;fd_type=2;addr=127.0.0.1;port=8005;authz=0
12:50:02.574271  [DEBUG   ][try_to_connect_mailbox]server=127.0.0.1;port=8005
12:50:02.574351  [DEBUG   ][CEpollServer::addFdAndMb]fd=10;fd_type=2;addr=45.79.87.62;port=8006;authz=0
12:50:02.574379  [DEBUG   ][try_to_connect_mailbox]server=45.79.87.62;port=8006
12:50:02.574455  [DEBUG   ][CEpollServer::addFdAndMb]fd=11;fd_type=2;addr=45.79.87.62;port=8007;authz=0
12:50:02.574482  [DEBUG   ][try_to_connect_mailbox]server=45.79.87.62;port=8007
12:50:02.574530  [INFO    ][connect_2_mb]connect 127.0.0.1:8001 error:111,Connection refused
12:50:02.574557  [DEBUG   ][CEpollServer::removeFd]fd=6;fd_type=2;addr=127.0.0.1;port=8001
12:50:02.574591  [INFO    ][connected_2_mb]mb fd = 7 connected severName = 127.0.0.1, port = 8002,
12:50:02.574618  [INFO    ][connect_2_mb]connect 127.0.0.1:8003 error:111,Connection refused
12:50:02.574642  [DEBUG   ][CEpollServer::removeFd]fd=8;fd_type=2;addr=127.0.0.1;port=8003
12:50:02.574674  [INFO    ][connect_2_mb]connect 127.0.0.1:8005 error:111,Connection refused
12:50:02.574699  [DEBUG   ][CEpollServer::removeFd]fd=9;fd_type=2;addr=127.0.0.1;port=8005
12:50:02.574729  [INFO    ][connect_2_mb]connect 45.79.87.62:8006 error:111,Connection refused
12:50:02.574752  [DEBUG   ][CEpollServer::removeFd]fd=10;fd_type=2;addr=45.79.87.62;port=8006
12:50:02.574781  [INFO    ][connect_2_mb]connect 45.79.87.62:8007 error:111,Connection refused
12:50:02.574804  [DEBUG   ][CEpollServer::removeFd]fd=11;fd_type=2;addr=45.79.87.62;port=8007
12:50:02.598295  [INFO    ][new_connection]connected from 127.0.0.1:47706, assigned socket is:12
12:50:02.598355  [DEBUG   ][CEpollServer::AddFdAndMb]serverName=127.0.0.1
12:50:02.598376  [DEBUG   ][CEpollServer::AddFdAndMb]client_trusted, serverName=127.0.0.1
12:50:02.598399  [DEBUG   ][CEpollServer::addFdAndMb]fd=12;fd_type=3;addr=127.0.0.1;port=47706;authz=15
12:50:02.608804  [INFO    ][new_connection]connected from 127.0.0.1:47713, assigned socket is:13
12:50:02.608845  [DEBUG   ][CEpollServer::AddFdAndMb]serverName=127.0.0.1
12:50:02.608862  [DEBUG   ][CEpollServer::AddFdAndMb]client_trusted, serverName=127.0.0.1
12:50:02.608880  [DEBUG   ][CEpollServer::addFdAndMb]fd=13;fd_type=3;addr=127.0.0.1;port=47713;authz=15
12:50:02.623851  [INFO    ][new_connection]connected from 127.0.0.1:47722, assigned socket is:14
12:50:02.623907  [DEBUG   ][CEpollServer::AddFdAndMb]serverName=127.0.0.1
12:50:02.623923  [DEBUG   ][CEpollServer::AddFdAndMb]client_trusted, serverName=127.0.0.1
12:50:02.623939  [DEBUG   ][CEpollServer::addFdAndMb]fd=14;fd_type=3;addr=127.0.0.1;port=47722;authz=15
12:50:03.872397  [INFO    ][new_connection]connected from 127.0.0.1:47737, assigned socket is:15
12:50:03.872442  [DEBUG   ][CEpollServer::AddFdAndMb]serverName=127.0.0.1
12:50:03.872458  [DEBUG   ][CEpollServer::AddFdAndMb]client_trusted, serverName=127.0.0.1
12:50:03.872475  [DEBUG   ][CEpollServer::addFdAndMb]fd=15;fd_type=3;addr=127.0.0.1;port=47737;authz=15
12:50:04.110284  [INFO    ][new_connection]connected from 127.0.0.1:47743, assigned socket is:16
12:50:04.110320  [DEBUG   ][CEpollServer::AddFdAndMb]serverName=127.0.0.1
12:50:04.110335  [DEBUG   ][CEpollServer::AddFdAndMb]client_trusted, serverName=127.0.0.1
12:50:04.110351  [DEBUG   ][CEpollServer::addFdAndMb]fd=16;fd_type=3;addr=127.0.0.1;port=47743;authz=15
12:50:07.019036  [INFO    ][new_connection]connected from 127.0.0.1:47752, assigned socket is:17
12:50:07.019086  [DEBUG   ][CEpollServer::AddFdAndMb]serverName=127.0.0.1
12:50:07.019102  [DEBUG   ][CEpollServer::AddFdAndMb]client_trusted, serverName=127.0.0.1
12:50:07.019122  [DEBUG   ][CEpollServer::addFdAndMb]fd=17;fd_type=3;addr=127.0.0.1;port=47752;authz=15
12:50:07.019233  [DEBUG   ][CEpollServer::addFdAndMb]fd=11;fd_type=2;addr=45.79.87.62;port=8007;authz=0
12:50:07.019319  [DEBUG   ][CEpollServer::addFdAndMb]fd=10;fd_type=2;addr=45.79.87.62;port=8006;authz=0
12:50:07.019432  [DEBUG   ][CEpollServer::addFdAndMb]fd=9;fd_type=2;addr=127.0.0.1;port=8005;authz=0
12:50:07.019553  [DEBUG   ][CEpollServer::addFdAndMb]fd=8;fd_type=2;addr=127.0.0.1;port=8003;authz=0
12:50:07.019678  [DEBUG   ][CEpollServer::addFdAndMb]fd=6;fd_type=2;addr=127.0.0.1;port=8001;authz=0
12:50:07.019715  [INFO    ][connected_2_mb]mb fd = 11 connected severName = 45.79.87.62, port = 8007,
12:50:07.019743  [INFO    ][connected_2_mb]mb fd = 10 connected severName = 45.79.87.62, port = 8006,
12:50:07.019768  [INFO    ][connected_2_mb]mb fd = 9 connected severName = 127.0.0.1, port = 8005,
12:50:07.019792  [INFO    ][connected_2_mb]mb fd = 8 connected severName = 127.0.0.1, port = 8003,
12:50:07.019816  [INFO    ][connected_2_mb]mb fd = 6 connected severName = 127.0.0.1, port = 8001,
