15:48:33.546764  [WARNING ][init_cfg]warning:missed section:server_8
15:48:33.546957  [WARNING ][init_cfg]warning:missed section:server_9
15:48:33.546987  [WARNING ][init_cfg]warning:missed section:server_10
15:48:33.547011  [WARNING ][init_cfg]warning:missed section:server_11
15:48:33.547035  [WARNING ][init_cfg]warning:missed section:server_12
15:48:33.547058  [WARNING ][init_cfg]warning:missed section:server_13
15:48:33.547081  [WARNING ][init_cfg]warning:missed section:server_14
15:48:33.547104  [WARNING ][init_cfg]warning:missed section:server_15
15:48:33.547127  [WARNING ][init_cfg]warning:missed section:server_16
15:48:33.547150  [WARNING ][init_cfg]warning:missed section:server_17
15:48:33.547172  [WARNING ][init_cfg]warning:missed section:server_18
15:48:33.547195  [WARNING ][init_cfg]warning:missed section:server_19
15:48:33.547218  [WARNING ][init_cfg]warning:missed section:server_20
15:48:33.547241  [WARNING ][init_cfg]warning:missed section:server_21
15:48:33.547264  [WARNING ][init_cfg]warning:missed section:server_22
15:48:33.547286  [WARNING ][init_cfg]warning:missed section:server_23
15:48:33.547309  [WARNING ][init_cfg]warning:missed section:server_24
15:48:33.547333  [WARNING ][init_cfg]warning:missed section:server_25
15:48:33.547371  [WARNING ][init_cfg]warning:missed section:server_26
15:48:33.547412  [WARNING ][init_cfg]warning:missed section:server_27
15:48:33.547441  [WARNING ][init_cfg]warning:missed section:server_28
15:48:33.547470  [WARNING ][init_cfg]warning:missed section:server_29
15:48:33.547699  [DEBUG   ][CDefParser::init]==========
15:48:33.598198  [DEBUG   ][CDefParser::init]m_EntityDefMd5 = e5a2d6e9b88cff1622d5b58a25f71496
15:48:33.598313  [INFO    ][world::initNextEntityId]init_id=67108864
15:48:33.598442  [DEBUG   ][CEpollServer::AddFdAndMb]serverName=
15:48:33.598474  [DEBUG   ][CEpollServer::addFdAndMb]fd=4;fd_type=1;addr=;port=8004;authz=0
15:48:33.598489  [DEBUG   ][start_server]:8004,success.
15:48:33.598640  [DEBUG   ][CEpollServer::addFdAndMb]fd=6;fd_type=2;addr=127.0.0.1;port=8001;authz=0
15:48:33.598670  [DEBUG   ][try_to_connect_mailbox]server=127.0.0.1;port=8001
15:48:33.598753  [DEBUG   ][CEpollServer::addFdAndMb]fd=7;fd_type=2;addr=127.0.0.1;port=8002;authz=0
15:48:33.598783  [DEBUG   ][try_to_connect_mailbox]server=127.0.0.1;port=8002
15:48:33.598853  [DEBUG   ][CEpollServer::addFdAndMb]fd=8;fd_type=2;addr=127.0.0.1;port=8003;authz=0
15:48:33.598874  [DEBUG   ][try_to_connect_mailbox]server=127.0.0.1;port=8003
15:48:33.598950  [DEBUG   ][CEpollServer::addFdAndMb]fd=9;fd_type=2;addr=127.0.0.1;port=8005;authz=0
15:48:33.598980  [DEBUG   ][try_to_connect_mailbox]server=127.0.0.1;port=8005
15:48:33.599062  [DEBUG   ][CEpollServer::addFdAndMb]fd=10;fd_type=2;addr=45.79.87.62;port=8006;authz=0
15:48:33.599090  [DEBUG   ][try_to_connect_mailbox]server=45.79.87.62;port=8006
15:48:33.599144  [DEBUG   ][CEpollServer::addFdAndMb]fd=11;fd_type=2;addr=45.79.87.62;port=8007;authz=0
15:48:33.599163  [DEBUG   ][try_to_connect_mailbox]server=45.79.87.62;port=8007
15:48:33.599195  [INFO    ][connect_2_mb]connect 127.0.0.1:8001 error:111,Connection refused
15:48:33.599221  [DEBUG   ][CEpollServer::removeFd]fd=6;fd_type=2;addr=127.0.0.1;port=8001
15:48:33.599248  [INFO    ][connect_2_mb]connect 127.0.0.1:8002 error:111,Connection refused
15:48:33.599262  [DEBUG   ][CEpollServer::removeFd]fd=7;fd_type=2;addr=127.0.0.1;port=8002
15:48:33.599281  [INFO    ][connect_2_mb]connect 127.0.0.1:8003 error:111,Connection refused
15:48:33.599294  [DEBUG   ][CEpollServer::removeFd]fd=8;fd_type=2;addr=127.0.0.1;port=8003
15:48:33.599311  [INFO    ][connect_2_mb]connect 127.0.0.1:8005 error:111,Connection refused
15:48:33.599333  [DEBUG   ][CEpollServer::removeFd]fd=9;fd_type=2;addr=127.0.0.1;port=8005
15:48:33.599360  [INFO    ][connect_2_mb]connect 45.79.87.62:8006 error:111,Connection refused
15:48:33.599380  [DEBUG   ][CEpollServer::removeFd]fd=10;fd_type=2;addr=45.79.87.62;port=8006
15:48:33.599405  [INFO    ][connect_2_mb]connect 45.79.87.62:8007 error:111,Connection refused
15:48:33.599425  [DEBUG   ][CEpollServer::removeFd]fd=11;fd_type=2;addr=45.79.87.62;port=8007
15:48:33.602722  [INFO    ][new_connection]connected from 127.0.0.1:46197, assigned socket is:12
15:48:33.602750  [DEBUG   ][CEpollServer::AddFdAndMb]serverName=127.0.0.1
15:48:33.602764  [DEBUG   ][CEpollServer::AddFdAndMb]client_trusted, serverName=127.0.0.1
15:48:33.602778  [DEBUG   ][CEpollServer::addFdAndMb]fd=12;fd_type=3;addr=127.0.0.1;port=46197;authz=15
15:48:33.637816  [INFO    ][new_connection]connected from 127.0.0.1:46203, assigned socket is:13
15:48:33.637854  [DEBUG   ][CEpollServer::AddFdAndMb]serverName=127.0.0.1
15:48:33.637888  [DEBUG   ][CEpollServer::AddFdAndMb]client_trusted, serverName=127.0.0.1
15:48:33.637906  [DEBUG   ][CEpollServer::addFdAndMb]fd=13;fd_type=3;addr=127.0.0.1;port=46203;authz=15
15:48:33.653972  [INFO    ][new_connection]connected from 127.0.0.1:46212, assigned socket is:14
15:48:33.654009  [DEBUG   ][CEpollServer::AddFdAndMb]serverName=127.0.0.1
15:48:33.654024  [DEBUG   ][CEpollServer::AddFdAndMb]client_trusted, serverName=127.0.0.1
15:48:33.654039  [DEBUG   ][CEpollServer::addFdAndMb]fd=14;fd_type=3;addr=127.0.0.1;port=46212;authz=15
15:48:33.654396  [INFO    ][new_connection]connected from 127.0.0.1:46215, assigned socket is:15
15:48:33.654424  [DEBUG   ][CEpollServer::AddFdAndMb]serverName=127.0.0.1
15:48:33.654438  [DEBUG   ][CEpollServer::AddFdAndMb]client_trusted, serverName=127.0.0.1
15:48:33.654452  [DEBUG   ][CEpollServer::addFdAndMb]fd=15;fd_type=3;addr=127.0.0.1;port=46215;authz=15
15:48:34.689821  [INFO    ][new_connection]connected from 127.0.0.1:46234, assigned socket is:16
15:48:34.689858  [DEBUG   ][CEpollServer::AddFdAndMb]serverName=127.0.0.1
15:48:34.689873  [DEBUG   ][CEpollServer::AddFdAndMb]client_trusted, serverName=127.0.0.1
15:48:34.689889  [DEBUG   ][CEpollServer::addFdAndMb]fd=16;fd_type=3;addr=127.0.0.1;port=46234;authz=15
15:48:34.953665  [INFO    ][new_connection]connected from 127.0.0.1:46240, assigned socket is:17
15:48:34.953714  [DEBUG   ][CEpollServer::AddFdAndMb]serverName=127.0.0.1
15:48:34.953740  [DEBUG   ][CEpollServer::AddFdAndMb]client_trusted, serverName=127.0.0.1
15:48:34.953764  [DEBUG   ][CEpollServer::addFdAndMb]fd=17;fd_type=3;addr=127.0.0.1;port=46240;authz=15
15:48:39.198622  [DEBUG   ][CEpollServer::addFdAndMb]fd=11;fd_type=2;addr=45.79.87.62;port=8007;authz=0
15:48:39.198721  [DEBUG   ][CEpollServer::addFdAndMb]fd=10;fd_type=2;addr=45.79.87.62;port=8006;authz=0
15:48:39.198808  [DEBUG   ][CEpollServer::addFdAndMb]fd=9;fd_type=2;addr=127.0.0.1;port=8005;authz=0
15:48:39.198893  [DEBUG   ][CEpollServer::addFdAndMb]fd=8;fd_type=2;addr=127.0.0.1;port=8003;authz=0
15:48:39.198991  [DEBUG   ][CEpollServer::addFdAndMb]fd=7;fd_type=2;addr=127.0.0.1;port=8002;authz=0
15:48:39.199108  [DEBUG   ][CEpollServer::addFdAndMb]fd=6;fd_type=2;addr=127.0.0.1;port=8001;authz=0
15:48:39.199136  [INFO    ][connected_2_mb]mb fd = 11 connected severName = 45.79.87.62, port = 8007,
15:48:39.199151  [INFO    ][connected_2_mb]mb fd = 10 connected severName = 45.79.87.62, port = 8006,
15:48:39.199165  [INFO    ][connected_2_mb]mb fd = 9 connected severName = 127.0.0.1, port = 8005,
15:48:39.199180  [INFO    ][connected_2_mb]mb fd = 8 connected severName = 127.0.0.1, port = 8003,
15:48:39.199194  [INFO    ][connected_2_mb]mb fd = 7 connected severName = 127.0.0.1, port = 8002,
15:48:39.199207  [INFO    ][connected_2_mb]mb fd = 6 connected severName = 127.0.0.1, port = 8001,
